%!PS-Adobe-3.0 EPSF-3.0
%%Creator: (MATLAB, The Mathworks, Inc. Version 9.1.0.441655 \(R2016b\). Operating System: Mac OS X)
%%Title: ./doc/img/penalty_penetration.eps
%%CreationDate: 2017-09-18T09:33:51
%%Pages: (atend)
%%BoundingBox:    16     6   514   395
%%LanguageLevel: 3
%%EndComments
%%BeginProlog
%%BeginResource: procset (Apache XML Graphics Std ProcSet) 1.2 0
%%Version: 1.2 0
%%Copyright: (Copyright 2001-2003,2010 The Apache Software Foundation. License terms: http://www.apache.org/licenses/LICENSE-2.0)
/bd{bind def}bind def
/ld{load def}bd
/GR/grestore ld
/M/moveto ld
/LJ/setlinejoin ld
/C/curveto ld
/f/fill ld
/LW/setlinewidth ld
/GC/setgray ld
/t/show ld
/N/newpath ld
/CT/concat ld
/cp/closepath ld
/S/stroke ld
/L/lineto ld
/CC/setcmykcolor ld
/A/ashow ld
/GS/gsave ld
/RC/setrgbcolor ld
/RM/rmoveto ld
/ML/setmiterlimit ld
/re {4 2 roll M
1 index 0 rlineto
0 exch rlineto
neg 0 rlineto
cp } bd
/_ctm matrix def
/_tm matrix def
/BT { _ctm currentmatrix pop matrix _tm copy pop 0 0 moveto } bd
/ET { _ctm setmatrix } bd
/iTm { _ctm setmatrix _tm concat } bd
/Tm { _tm astore pop iTm 0 0 moveto } bd
/ux 0.0 def
/uy 0.0 def
/F {
  /Tp exch def
  /Tf exch def
  Tf findfont Tp scalefont setfont
  /cf Tf def  /cs Tp def
} bd
/ULS {currentpoint /uy exch def /ux exch def} bd
/ULE {
  /Tcx currentpoint pop def
  gsave
  newpath
  cf findfont cs scalefont dup
  /FontMatrix get 0 get /Ts exch def /FontInfo get dup
  /UnderlinePosition get Ts mul /To exch def
  /UnderlineThickness get Ts mul /Tt exch def
  ux uy To add moveto  Tcx uy To add lineto
  Tt setlinewidth stroke
  grestore
} bd
/OLE {
  /Tcx currentpoint pop def
  gsave
  newpath
  cf findfont cs scalefont dup
  /FontMatrix get 0 get /Ts exch def /FontInfo get dup
  /UnderlinePosition get Ts mul /To exch def
  /UnderlineThickness get Ts mul /Tt exch def
  ux uy To add cs add moveto Tcx uy To add cs add lineto
  Tt setlinewidth stroke
  grestore
} bd
/SOE {
  /Tcx currentpoint pop def
  gsave
  newpath
  cf findfont cs scalefont dup
  /FontMatrix get 0 get /Ts exch def /FontInfo get dup
  /UnderlinePosition get Ts mul /To exch def
  /UnderlineThickness get Ts mul /Tt exch def
  ux uy To add cs 10 mul 26 idiv add moveto Tcx uy To add cs 10 mul 26 idiv add lineto
  Tt setlinewidth stroke
  grestore
} bd
/QT {
/Y22 exch store
/X22 exch store
/Y21 exch store
/X21 exch store
currentpoint
/Y21 load 2 mul add 3 div exch
/X21 load 2 mul add 3 div exch
/X21 load 2 mul /X22 load add 3 div
/Y21 load 2 mul /Y22 load add 3 div
/X22 load /Y22 load curveto
} bd
/SSPD {
dup length /d exch dict def
{
/v exch def
/k exch def
currentpagedevice k known {
/cpdv currentpagedevice k get def
v cpdv ne {
/upd false def
/nullv v type /nulltype eq def
/nullcpdv cpdv type /nulltype eq def
nullv nullcpdv or
{
/upd true def
} {
/sametype v type cpdv type eq def
sametype {
v type /arraytype eq {
/vlen v length def
/cpdvlen cpdv length def
vlen cpdvlen eq {
0 1 vlen 1 sub {
/i exch def
/obj v i get def
/cpdobj cpdv i get def
obj cpdobj ne {
/upd true def
exit
} if
} for
} {
/upd true def
} ifelse
} {
v type /dicttype eq {
v {
/dv exch def
/dk exch def
/cpddv cpdv dk get def
dv cpddv ne {
/upd true def
exit
} if
} forall
} {
/upd true def
} ifelse
} ifelse
} if
} ifelse
upd true eq {
d k v put
} if
} if
} if
} forall
d length 0 gt {
d setpagedevice
} if
} bd
/RE { % /NewFontName [NewEncodingArray] /FontName RE -
  findfont dup length dict begin
  {
    1 index /FID ne
    {def} {pop pop} ifelse
  } forall
  /Encoding exch def
  /FontName 1 index def
  currentdict definefont pop
  end
} bind def
%%EndResource
%%BeginResource: procset (Apache XML Graphics EPS ProcSet) 1.0 0
%%Version: 1.0 0
%%Copyright: (Copyright 2002-2003 The Apache Software Foundation. License terms: http://www.apache.org/licenses/LICENSE-2.0)
/BeginEPSF { %def
/b4_Inc_state save def         % Save state for cleanup
/dict_count countdictstack def % Count objects on dict stack
/op_count count 1 sub def      % Count objects on operand stack
userdict begin                 % Push userdict on dict stack
/showpage { } def              % Redefine showpage, { } = null proc
0 setgray 0 setlinecap         % Prepare graphics state
1 setlinewidth 0 setlinejoin
10 setmiterlimit [ ] 0 setdash newpath
/languagelevel where           % If level not equal to 1 then
{pop languagelevel             % set strokeadjust and
1 ne                           % overprint to their defaults.
{false setstrokeadjust false setoverprint
} if
} if
} bd
/EndEPSF { %def
count op_count sub {pop} repeat            % Clean up stacks
countdictstack dict_count sub {end} repeat
b4_Inc_state restore
} bd
%%EndResource
%FOPBeginFontDict
%%IncludeResource: font Courier-Bold
%%IncludeResource: font Helvetica
%%IncludeResource: font Courier-BoldOblique
%%IncludeResource: font Courier-Oblique
%%IncludeResource: font Times-Roman
%%IncludeResource: font Helvetica-BoldOblique
%%IncludeResource: font Helvetica-Bold
%%IncludeResource: font Helvetica-Oblique
%%IncludeResource: font Times-BoldItalic
%%IncludeResource: font Courier
%%IncludeResource: font Times-Italic
%%IncludeResource: font Times-Bold
%%IncludeResource: font Symbol
%%IncludeResource: font ZapfDingbats
%FOPEndFontDict
%%BeginResource: encoding WinAnsiEncoding
/WinAnsiEncoding [
/.notdef /.notdef /.notdef /.notdef /.notdef
/.notdef /.notdef /.notdef /.notdef /.notdef
/.notdef /.notdef /.notdef /.notdef /.notdef
/.notdef /.notdef /.notdef /.notdef /.notdef
/.notdef /.notdef /.notdef /.notdef /.notdef
/.notdef /.notdef /.notdef /.notdef /.notdef
/.notdef /.notdef /space /exclam /quotedbl
/numbersign /dollar /percent /ampersand /quotesingle
/parenleft /parenright /asterisk /plus /comma
/hyphen /period /slash /zero /one
/two /three /four /five /six
/seven /eight /nine /colon /semicolon
/less /equal /greater /question /at
/A /B /C /D /E
/F /G /H /I /J
/K /L /M /N /O
/P /Q /R /S /T
/U /V /W /X /Y
/Z /bracketleft /backslash /bracketright /asciicircum
/underscore /quoteleft /a /b /c
/d /e /f /g /h
/i /j /k /l /m
/n /o /p /q /r
/s /t /u /v /w
/x /y /z /braceleft /bar
/braceright /asciitilde /bullet /Euro /bullet
/quotesinglbase /florin /quotedblbase /ellipsis /dagger
/daggerdbl /circumflex /perthousand /Scaron /guilsinglleft
/OE /bullet /Zcaron /bullet /bullet
/quoteleft /quoteright /quotedblleft /quotedblright /bullet
/endash /emdash /asciitilde /trademark /scaron
/guilsinglright /oe /bullet /zcaron /Ydieresis
/space /exclamdown /cent /sterling /currency
/yen /brokenbar /section /dieresis /copyright
/ordfeminine /guillemotleft /logicalnot /sfthyphen /registered
/macron /degree /plusminus /twosuperior /threesuperior
/acute /mu /paragraph /middot /cedilla
/onesuperior /ordmasculine /guillemotright /onequarter /onehalf
/threequarters /questiondown /Agrave /Aacute /Acircumflex
/Atilde /Adieresis /Aring /AE /Ccedilla
/Egrave /Eacute /Ecircumflex /Edieresis /Igrave
/Iacute /Icircumflex /Idieresis /Eth /Ntilde
/Ograve /Oacute /Ocircumflex /Otilde /Odieresis
/multiply /Oslash /Ugrave /Uacute /Ucircumflex
/Udieresis /Yacute /Thorn /germandbls /agrave
/aacute /acircumflex /atilde /adieresis /aring
/ae /ccedilla /egrave /eacute /ecircumflex
/edieresis /igrave /iacute /icircumflex /idieresis
/eth /ntilde /ograve /oacute /ocircumflex
/otilde /odieresis /divide /oslash /ugrave
/uacute /ucircumflex /udieresis /yacute /thorn
/ydieresis
] def
%%EndResource
%FOPBeginFontReencode
/Courier-Bold findfont
dup length dict begin
  {1 index /FID ne {def} {pop pop} ifelse} forall
  /Encoding WinAnsiEncoding def
  currentdict
end
/Courier-Bold exch definefont pop
/Helvetica findfont
dup length dict begin
  {1 index /FID ne {def} {pop pop} ifelse} forall
  /Encoding WinAnsiEncoding def
  currentdict
end
/Helvetica exch definefont pop
/Courier-BoldOblique findfont
dup length dict begin
  {1 index /FID ne {def} {pop pop} ifelse} forall
  /Encoding WinAnsiEncoding def
  currentdict
end
/Courier-BoldOblique exch definefont pop
/Courier-Oblique findfont
dup length dict begin
  {1 index /FID ne {def} {pop pop} ifelse} forall
  /Encoding WinAnsiEncoding def
  currentdict
end
/Courier-Oblique exch definefont pop
/Times-Roman findfont
dup length dict begin
  {1 index /FID ne {def} {pop pop} ifelse} forall
  /Encoding WinAnsiEncoding def
  currentdict
end
/Times-Roman exch definefont pop
/Helvetica-BoldOblique findfont
dup length dict begin
  {1 index /FID ne {def} {pop pop} ifelse} forall
  /Encoding WinAnsiEncoding def
  currentdict
end
/Helvetica-BoldOblique exch definefont pop
/Helvetica-Bold findfont
dup length dict begin
  {1 index /FID ne {def} {pop pop} ifelse} forall
  /Encoding WinAnsiEncoding def
  currentdict
end
/Helvetica-Bold exch definefont pop
/Helvetica-Oblique findfont
dup length dict begin
  {1 index /FID ne {def} {pop pop} ifelse} forall
  /Encoding WinAnsiEncoding def
  currentdict
end
/Helvetica-Oblique exch definefont pop
/Times-BoldItalic findfont
dup length dict begin
  {1 index /FID ne {def} {pop pop} ifelse} forall
  /Encoding WinAnsiEncoding def
  currentdict
end
/Times-BoldItalic exch definefont pop
/Courier findfont
dup length dict begin
  {1 index /FID ne {def} {pop pop} ifelse} forall
  /Encoding WinAnsiEncoding def
  currentdict
end
/Courier exch definefont pop
/Times-Italic findfont
dup length dict begin
  {1 index /FID ne {def} {pop pop} ifelse} forall
  /Encoding WinAnsiEncoding def
  currentdict
end
/Times-Italic exch definefont pop
/Times-Bold findfont
dup length dict begin
  {1 index /FID ne {def} {pop pop} ifelse} forall
  /Encoding WinAnsiEncoding def
  currentdict
end
/Times-Bold exch definefont pop
%FOPEndFontReencode
%%EndProlog
%%Page: 1 1
%%PageBoundingBox: 0 0 560 420
%%BeginPageSetup
[1 0 0 -1 0 420] CT
%%EndPageSetup
GS
1 GC
N
0 0 560 420 re
f
GR
GS
1 GC
N
0 0 560 420 re
f
GR
GS
1 GC
N
73 374 M
507 374 L
507 31 L
73 31 L
cp
f
GR
GS
0.149 GC
2 setlinecap
1 LJ
0.5 LW
N
73 374 M
507 374 L
S
GR
GS
0.149 GC
2 setlinecap
1 LJ
0.5 LW
N
73 31 M
507 31 L
S
GR
GS
0.149 GC
2 setlinecap
1 LJ
0.5 LW
N
73 374 M
73 369.66 L
S
GR
GS
0.149 GC
2 setlinecap
1 LJ
0.5 LW
N
159.8 374 M
159.8 369.66 L
S
GR
GS
0.149 GC
2 setlinecap
1 LJ
0.5 LW
N
246.6 374 M
246.6 369.66 L
S
GR
GS
0.149 GC
2 setlinecap
1 LJ
0.5 LW
N
333.4 374 M
333.4 369.66 L
S
GR
GS
0.149 GC
2 setlinecap
1 LJ
0.5 LW
N
420.2 374 M
420.2 369.66 L
S
GR
GS
0.149 GC
2 setlinecap
1 LJ
0.5 LW
N
507 374 M
507 369.66 L
S
GR
GS
0.149 GC
2 setlinecap
1 LJ
0.5 LW
N
73 31 M
73 35.34 L
S
GR
GS
0.149 GC
2 setlinecap
1 LJ
0.5 LW
N
159.8 31 M
159.8 35.34 L
S
GR
GS
0.149 GC
2 setlinecap
1 LJ
0.5 LW
N
246.6 31 M
246.6 35.34 L
S
GR
GS
0.149 GC
2 setlinecap
1 LJ
0.5 LW
N
333.4 31 M
333.4 35.34 L
S
GR
GS
0.149 GC
2 setlinecap
1 LJ
0.5 LW
N
420.2 31 M
420.2 35.34 L
S
GR
GS
0.149 GC
2 setlinecap
1 LJ
0.5 LW
N
507 31 M
507 35.34 L
S
GR
GS
[1 0 0 1 73 378.79999] CT
0.149 GC
N
0 12.072 M
-1.719 12.072 -2.336 10.658 QT
-2.953 9.244 -2.953 7.291 QT
-2.953 6.072 -2.734 5.002 QT
-2.516 3.932 -1.852 3.182 QT
-1.188 2.432 0 2.432 QT
0.922 2.432 1.508 2.885 QT
2.094 3.338 2.406 4.049 QT
2.719 4.76 2.828 5.58 QT
2.938 6.401 2.938 7.291 QT
2.938 8.494 2.719 9.549 QT
2.5 10.604 1.852 11.338 QT
1.203 12.072 0 12.072 QT
cp
0 11.697 M
0.781 11.697 1.164 10.901 QT
1.547 10.104 1.633 9.135 QT
1.719 8.166 1.719 7.072 QT
1.719 6.01 1.633 5.127 QT
1.547 4.244 1.164 3.518 QT
0.781 2.791 0 2.791 QT
-0.797 2.791 -1.18 3.518 QT
-1.563 4.244 -1.648 5.127 QT
-1.734 6.01 -1.734 7.072 QT
-1.734 7.854 -1.695 8.541 QT
-1.656 9.229 -1.492 9.963 QT
-1.328 10.697 -0.961 11.197 QT
-0.594 11.697 0 11.697 QT
cp
f
GR
GS
[1 0 0 1 159.8 378.79999] CT
0.149 GC
N
-2.797 11.76 M
-2.797 11.385 L
-2.797 11.354 -2.781 11.307 QT
-0.594 8.901 L
-0.109 8.369 0.195 8.01 QT
0.5 7.651 0.805 7.174 QT
1.109 6.697 1.281 6.213 QT
1.453 5.729 1.453 5.182 QT
1.453 4.604 1.242 4.08 QT
1.031 3.557 0.609 3.244 QT
0.188 2.932 -0.406 2.932 QT
-1.016 2.932 -1.5 3.299 QT
-1.984 3.666 -2.188 4.244 QT
-2.125 4.229 -2.031 4.229 QT
-1.719 4.229 -1.492 4.44 QT
-1.266 4.651 -1.266 4.979 QT
-1.266 5.307 -1.492 5.526 QT
-1.719 5.744 -2.031 5.744 QT
-2.359 5.744 -2.578 5.518 QT
-2.797 5.291 -2.797 4.979 QT
-2.797 4.463 -2.602 4.002 QT
-2.406 3.541 -2.031 3.182 QT
-1.656 2.822 -1.188 2.627 QT
-0.719 2.432 -0.203 2.432 QT
0.609 2.432 1.297 2.776 QT
1.984 3.119 2.391 3.737 QT
2.797 4.354 2.797 5.182 QT
2.797 5.791 2.523 6.338 QT
2.25 6.885 1.836 7.33 QT
1.422 7.776 0.773 8.346 QT
0.125 8.916 -0.078 9.104 QT
-1.672 10.619 L
-0.328 10.619 L
0.672 10.619 1.336 10.604 QT
2 10.588 2.047 10.557 QT
2.203 10.385 2.375 9.26 QT
2.797 9.26 L
2.391 11.76 L
-2.797 11.76 L
cp
f
GR
GS
[1 0 0 1 246.60001 378.79999] CT
0.149 GC
N
-3.109 9.447 M
-3.109 8.963 L
1.219 2.51 L
1.266 2.432 1.359 2.432 QT
1.563 2.432 L
1.719 2.432 1.719 2.588 QT
1.719 8.963 L
3.094 8.963 L
3.094 9.447 L
1.719 9.447 L
1.719 10.822 L
1.719 11.104 2.133 11.182 QT
2.547 11.26 3.078 11.26 QT
3.078 11.76 L
-0.766 11.76 L
-0.766 11.26 L
-0.234 11.26 0.18 11.182 QT
0.594 11.104 0.594 10.822 QT
0.594 9.447 L
-3.109 9.447 L
cp
-2.641 8.963 M
0.672 8.963 L
0.672 3.994 L
-2.641 8.963 L
cp
f
GR
GS
[1 0 0 1 333.39999 378.79999] CT
0.149 GC
N
0 12.072 M
-0.875 12.072 -1.453 11.612 QT
-2.031 11.151 -2.352 10.416 QT
-2.672 9.682 -2.789 8.869 QT
-2.906 8.057 -2.906 7.229 QT
-2.906 6.119 -2.477 5.01 QT
-2.047 3.901 -1.211 3.166 QT
-0.375 2.432 0.766 2.432 QT
1.25 2.432 1.664 2.612 QT
2.078 2.791 2.313 3.143 QT
2.547 3.494 2.547 3.994 QT
2.547 4.291 2.352 4.487 QT
2.156 4.682 1.875 4.682 QT
1.594 4.682 1.398 4.479 QT
1.203 4.276 1.203 3.994 QT
1.203 3.729 1.398 3.533 QT
1.594 3.338 1.875 3.338 QT
1.953 3.338 L
1.766 3.072 1.445 2.955 QT
1.125 2.838 0.766 2.838 QT
0.344 2.838 -0.016 3.026 QT
-0.375 3.213 -0.656 3.526 QT
-0.938 3.838 -1.133 4.213 QT
-1.328 4.588 -1.43 5.08 QT
-1.531 5.572 -1.563 5.994 QT
-1.594 6.416 -1.594 7.057 QT
-1.344 6.479 -0.891 6.112 QT
-0.438 5.744 0.125 5.744 QT
0.75 5.744 1.258 6.002 QT
1.766 6.26 2.141 6.705 QT
2.516 7.151 2.711 7.729 QT
2.906 8.307 2.906 8.885 QT
2.906 9.713 2.539 10.455 QT
2.172 11.197 1.508 11.635 QT
0.844 12.072 0 12.072 QT
cp
0 11.619 M
0.547 11.619 0.875 11.377 QT
1.203 11.135 1.352 10.729 QT
1.5 10.322 1.539 9.908 QT
1.578 9.494 1.578 8.885 QT
1.578 8.088 1.5 7.533 QT
1.422 6.979 1.094 6.549 QT
0.766 6.119 0.063 6.119 QT
-0.5 6.119 -0.867 6.502 QT
-1.234 6.885 -1.398 7.471 QT
-1.563 8.057 -1.563 8.588 QT
-1.563 8.776 -1.547 8.869 QT
-1.547 8.901 -1.555 8.908 QT
-1.563 8.916 -1.563 8.947 QT
-1.563 9.541 -1.438 10.158 QT
-1.313 10.776 -0.969 11.197 QT
-0.625 11.619 0 11.619 QT
cp
f
GR
GS
[1 0 0 1 420.20001 378.79999] CT
0.149 GC
N
-2.906 9.635 M
-2.906 8.791 -2.352 8.143 QT
-1.797 7.494 -0.938 7.072 QT
-1.453 6.729 L
-1.938 6.416 -2.234 5.893 QT
-2.531 5.369 -2.531 4.807 QT
-2.531 4.135 -2.18 3.596 QT
-1.828 3.057 -1.242 2.744 QT
-0.656 2.432 0 2.432 QT
0.625 2.432 1.203 2.69 QT
1.781 2.947 2.148 3.416 QT
2.516 3.885 2.516 4.541 QT
2.516 5.01 2.297 5.408 QT
2.078 5.807 1.695 6.127 QT
1.313 6.447 0.875 6.682 QT
1.672 7.197 L
2.219 7.557 2.563 8.143 QT
2.906 8.729 2.906 9.385 QT
2.906 10.135 2.492 10.76 QT
2.078 11.385 1.414 11.729 QT
0.75 12.072 0 12.072 QT
-0.719 12.072 -1.398 11.776 QT
-2.078 11.479 -2.492 10.924 QT
-2.906 10.369 -2.906 9.635 QT
cp
-2.156 9.635 M
-2.156 10.182 -1.852 10.643 QT
-1.547 11.104 -1.047 11.362 QT
-0.547 11.619 0 11.619 QT
0.813 11.619 1.477 11.143 QT
2.141 10.666 2.141 9.885 QT
2.141 9.619 2.031 9.354 QT
1.922 9.088 1.734 8.877 QT
1.547 8.666 1.313 8.526 QT
-0.563 7.307 L
-1 7.541 -1.367 7.901 QT
-1.734 8.26 -1.945 8.697 QT
-2.156 9.135 -2.156 9.635 QT
cp
-1.188 5.354 M
0.5 6.447 L
1.094 6.119 1.469 5.627 QT
1.844 5.135 1.844 4.541 QT
1.844 4.057 1.578 3.666 QT
1.313 3.276 0.891 3.057 QT
0.469 2.838 -0.016 2.838 QT
-0.438 2.838 -0.867 3.002 QT
-1.297 3.166 -1.578 3.494 QT
-1.859 3.822 -1.859 4.26 QT
-1.859 4.916 -1.188 5.354 QT
cp
f
GR
GS
[1 0 0 1 507 378.79999] CT
0.149 GC
N
-5.703 11.76 M
-5.703 11.26 L
-3.953 11.26 -3.953 10.822 QT
-3.953 3.479 L
-4.672 3.822 -5.781 3.822 QT
-5.781 3.338 L
-4.063 3.338 -3.188 2.432 QT
-3 2.432 L
-2.953 2.432 -2.906 2.471 QT
-2.859 2.51 -2.859 2.557 QT
-2.859 10.822 L
-2.859 11.26 -1.109 11.26 QT
-1.109 11.76 L
-5.703 11.76 L
cp
f
GR
GS
[1 0 0 1 507 378.79999] CT
0.149 GC
N
3.5 12.072 M
1.781 12.072 1.164 10.658 QT
0.547 9.244 0.547 7.291 QT
0.547 6.072 0.766 5.002 QT
0.984 3.932 1.648 3.182 QT
2.313 2.432 3.5 2.432 QT
4.422 2.432 5.008 2.885 QT
5.594 3.338 5.906 4.049 QT
6.219 4.76 6.328 5.58 QT
6.438 6.401 6.438 7.291 QT
6.438 8.494 6.219 9.549 QT
6 10.604 5.352 11.338 QT
4.703 12.072 3.5 12.072 QT
cp
3.5 11.697 M
4.281 11.697 4.664 10.901 QT
5.047 10.104 5.133 9.135 QT
5.219 8.166 5.219 7.072 QT
5.219 6.01 5.133 5.127 QT
5.047 4.244 4.664 3.518 QT
4.281 2.791 3.5 2.791 QT
2.703 2.791 2.32 3.518 QT
1.938 4.244 1.852 5.127 QT
1.766 6.01 1.766 7.072 QT
1.766 7.854 1.805 8.541 QT
1.844 9.229 2.008 9.963 QT
2.172 10.697 2.539 11.197 QT
2.906 11.697 3.5 11.697 QT
cp
f
GR
GS
[1 0 0 1 290.00021 396.60001] CT
0.149 GC
N
-104.329 12.936 M
-104.329 12.405 L
-102.782 12.405 -102.782 11.936 QT
-102.782 3.686 L
-102.782 3.217 -104.329 3.217 QT
-104.329 2.686 L
-98.985 2.686 L
-98.172 2.686 -97.352 3.022 QT
-96.532 3.358 -96.001 4.006 QT
-95.469 4.655 -95.469 5.514 QT
-95.469 6.342 -96.001 6.975 QT
-96.532 7.608 -97.344 7.928 QT
-98.157 8.248 -98.985 8.248 QT
-101.391 8.248 L
-101.391 11.936 L
-101.391 12.405 -99.844 12.405 QT
-99.844 12.936 L
-104.329 12.936 L
cp
-101.438 7.811 M
-99.407 7.811 L
-98.579 7.811 -98.063 7.569 QT
-97.547 7.327 -97.313 6.827 QT
-97.079 6.327 -97.079 5.514 QT
-97.079 4.28 -97.61 3.748 QT
-98.141 3.217 -99.407 3.217 QT
-100.672 3.217 L
-100.954 3.217 -101.102 3.241 QT
-101.251 3.264 -101.344 3.366 QT
-101.438 3.467 -101.438 3.686 QT
-101.438 7.811 L
cp
f
GR
GS
[1 0 0 1 290.00021 396.60001] CT
0.149 GC
N
-91.042 13.108 M
-91.963 13.108 -92.721 12.623 QT
-93.479 12.139 -93.917 11.342 QT
-94.354 10.545 -94.354 9.655 QT
-94.354 8.764 -93.956 7.975 QT
-93.557 7.186 -92.846 6.702 QT
-92.135 6.217 -91.26 6.217 QT
-90.557 6.217 -90.049 6.444 QT
-89.542 6.67 -89.213 7.084 QT
-88.885 7.498 -88.721 8.053 QT
-88.557 8.608 -88.557 9.28 QT
-88.557 9.467 -88.698 9.467 QT
-93.042 9.467 L
-93.042 9.639 L
-93.042 10.873 -92.542 11.772 QT
-92.042 12.67 -90.901 12.67 QT
-90.448 12.67 -90.057 12.459 QT
-89.667 12.248 -89.377 11.889 QT
-89.088 11.53 -88.979 11.108 QT
-88.963 11.061 -88.924 11.014 QT
-88.885 10.967 -88.838 10.967 QT
-88.698 10.967 L
-88.557 10.967 -88.557 11.17 QT
-88.76 12.014 -89.463 12.561 QT
-90.167 13.108 -91.042 13.108 QT
cp
-93.026 9.092 M
-89.62 9.092 L
-89.62 8.53 -89.776 7.952 QT
-89.932 7.373 -90.299 6.991 QT
-90.667 6.608 -91.26 6.608 QT
-92.104 6.608 -92.565 7.405 QT
-93.026 8.202 -93.026 9.092 QT
cp
f
GR
GS
[1 0 0 1 290.00021 396.60001] CT
0.149 GC
N
-87.478 12.936 M
-87.478 12.405 L
-86.978 12.405 -86.642 12.327 QT
-86.306 12.248 -86.306 11.936 QT
-86.306 7.842 L
-86.306 7.436 -86.431 7.256 QT
-86.556 7.077 -86.783 7.038 QT
-87.01 6.998 -87.478 6.998 QT
-87.478 6.467 L
-85.306 6.311 L
-85.306 7.78 L
-85.01 7.123 -84.416 6.717 QT
-83.822 6.311 -83.135 6.311 QT
-82.088 6.311 -81.564 6.811 QT
-81.041 7.311 -81.041 8.327 QT
-81.041 11.936 L
-81.041 12.248 -80.713 12.327 QT
-80.385 12.405 -79.869 12.405 QT
-79.869 12.936 L
-83.306 12.936 L
-83.306 12.405 L
-82.791 12.405 -82.463 12.327 QT
-82.135 12.248 -82.135 11.936 QT
-82.135 8.373 L
-82.135 7.639 -82.346 7.17 QT
-82.556 6.702 -83.228 6.702 QT
-84.088 6.702 -84.65 7.397 QT
-85.213 8.092 -85.213 8.967 QT
-85.213 11.936 L
-85.213 12.248 -84.885 12.327 QT
-84.556 12.405 -84.056 12.405 QT
-84.056 12.936 L
-87.478 12.936 L
cp
f
GR
GS
[1 0 0 1 290.00021 396.60001] CT
0.149 GC
N
-78.782 11.467 M
-78.782 10.577 -78.079 10.014 QT
-77.376 9.452 -76.384 9.217 QT
-75.392 8.983 -74.517 8.983 QT
-74.517 8.373 L
-74.517 7.936 -74.704 7.53 QT
-74.892 7.123 -75.251 6.866 QT
-75.61 6.608 -76.048 6.608 QT
-77.032 6.608 -77.563 7.061 QT
-77.267 7.061 -77.087 7.272 QT
-76.907 7.483 -76.907 7.78 QT
-76.907 8.077 -77.118 8.288 QT
-77.329 8.498 -77.61 8.498 QT
-77.923 8.498 -78.134 8.288 QT
-78.345 8.077 -78.345 7.78 QT
-78.345 6.983 -77.626 6.6 QT
-76.907 6.217 -76.048 6.217 QT
-75.438 6.217 -74.821 6.475 QT
-74.204 6.733 -73.813 7.217 QT
-73.423 7.702 -73.423 8.342 QT
-73.423 11.717 L
-73.423 12.014 -73.298 12.256 QT
-73.173 12.498 -72.907 12.498 QT
-72.657 12.498 -72.54 12.248 QT
-72.423 11.998 -72.423 11.717 QT
-72.423 10.764 L
-71.985 10.764 L
-71.985 11.717 L
-71.985 12.061 -72.157 12.366 QT
-72.329 12.67 -72.626 12.85 QT
-72.923 13.03 -73.267 13.03 QT
-73.704 13.03 -74.024 12.686 QT
-74.345 12.342 -74.376 11.873 QT
-74.657 12.436 -75.196 12.772 QT
-75.735 13.108 -76.36 13.108 QT
-76.923 13.108 -77.477 12.936 QT
-78.032 12.764 -78.407 12.405 QT
-78.782 12.045 -78.782 11.467 QT
cp
-77.563 11.467 M
-77.563 11.998 -77.173 12.35 QT
-76.782 12.702 -76.251 12.702 QT
-75.767 12.702 -75.376 12.467 QT
-74.985 12.233 -74.751 11.811 QT
-74.517 11.389 -74.517 10.936 QT
-74.517 9.373 L
-75.188 9.373 -75.907 9.592 QT
-76.626 9.811 -77.095 10.288 QT
-77.563 10.764 -77.563 11.467 QT
cp
f
GR
GS
[1 0 0 1 290.00021 396.60001] CT
0.149 GC
N
-71.207 12.936 M
-71.207 12.405 L
-70.707 12.405 -70.371 12.327 QT
-70.035 12.248 -70.035 11.936 QT
-70.035 4.061 L
-70.035 3.655 -70.16 3.475 QT
-70.285 3.295 -70.512 3.256 QT
-70.738 3.217 -71.207 3.217 QT
-71.207 2.686 L
-68.988 2.53 L
-68.988 11.936 L
-68.988 12.248 -68.66 12.327 QT
-68.332 12.405 -67.817 12.405 QT
-67.817 12.936 L
-71.207 12.936 L
cp
f
GR
GS
[1 0 0 1 290.00021 396.60001] CT
0.149 GC
N
-65.867 11.139 M
-65.867 6.998 L
-67.117 6.998 L
-67.117 6.608 L
-66.132 6.608 -65.672 5.694 QT
-65.211 4.78 -65.211 3.702 QT
-64.773 3.702 L
-64.773 6.467 L
-62.664 6.467 L
-62.664 6.998 L
-64.773 6.998 L
-64.773 11.108 L
-64.773 11.733 -64.562 12.202 QT
-64.351 12.67 -63.82 12.67 QT
-63.304 12.67 -63.078 12.17 QT
-62.851 11.67 -62.851 11.108 QT
-62.851 10.217 L
-62.414 10.217 L
-62.414 11.139 L
-62.414 11.608 -62.586 12.061 QT
-62.757 12.514 -63.093 12.811 QT
-63.429 13.108 -63.914 13.108 QT
-64.82 13.108 -65.343 12.569 QT
-65.867 12.03 -65.867 11.139 QT
cp
f
GR
GS
[1 0 0 1 290.00021 396.60001] CT
0.149 GC
N
-60.806 15.405 M
-60.524 15.623 -60.181 15.623 QT
-59.228 15.623 -58.634 14.202 QT
-58.118 12.936 L
-60.368 7.42 L
-60.509 7.155 -60.79 7.077 QT
-61.071 6.998 -61.556 6.998 QT
-61.556 6.467 L
-58.399 6.467 L
-58.399 6.998 L
-59.228 6.998 -59.228 7.358 QT
-59.228 7.42 -59.212 7.436 QT
-57.54 11.545 L
-56.04 7.858 L
-55.993 7.733 -55.993 7.592 QT
-55.993 7.42 -56.095 7.28 QT
-56.196 7.139 -56.353 7.069 QT
-56.509 6.998 -56.712 6.998 QT
-56.712 6.467 L
-54.212 6.467 L
-54.212 6.998 L
-54.681 6.998 -55.032 7.209 QT
-55.384 7.42 -55.571 7.842 QT
-58.165 14.202 L
-58.368 14.686 -58.642 15.092 QT
-58.915 15.498 -59.314 15.756 QT
-59.712 16.014 -60.181 16.014 QT
-60.728 16.014 -61.142 15.647 QT
-61.556 15.28 -61.556 14.748 QT
-61.556 14.467 -61.36 14.28 QT
-61.165 14.092 -60.899 14.092 QT
-60.696 14.092 -60.548 14.178 QT
-60.399 14.264 -60.314 14.413 QT
-60.228 14.561 -60.228 14.748 QT
-60.228 14.998 -60.392 15.186 QT
-60.556 15.373 -60.806 15.405 QT
cp
f
GR
GS
[1 0 0 1 290.00021 396.60001] CT
0.149 GC
N
-48.185 15.842 M
-48.185 15.327 L
-47.67 15.327 -47.341 15.241 QT
-47.013 15.155 -47.013 14.842 QT
-47.013 7.608 L
-47.013 7.202 -47.31 7.1 QT
-47.607 6.998 -48.185 6.998 QT
-48.185 6.467 L
-45.966 6.311 L
-45.966 7.233 L
-45.56 6.78 -45.013 6.545 QT
-44.466 6.311 -43.857 6.311 QT
-42.966 6.311 -42.256 6.788 QT
-41.545 7.264 -41.146 8.045 QT
-40.748 8.827 -40.748 9.702 QT
-40.748 10.608 -41.193 11.389 QT
-41.638 12.17 -42.404 12.639 QT
-43.17 13.108 -44.076 13.108 QT
-45.17 13.108 -45.92 12.217 QT
-45.92 14.842 L
-45.92 15.155 -45.591 15.241 QT
-45.263 15.327 -44.748 15.327 QT
-44.748 15.842 L
-48.185 15.842 L
cp
-45.92 11.483 M
-45.654 12.014 -45.185 12.358 QT
-44.716 12.702 -44.17 12.702 QT
-43.654 12.702 -43.248 12.428 QT
-42.841 12.155 -42.576 11.686 QT
-42.31 11.217 -42.177 10.702 QT
-42.045 10.186 -42.045 9.702 QT
-42.045 9.092 -42.263 8.397 QT
-42.482 7.702 -42.927 7.217 QT
-43.373 6.733 -43.998 6.733 QT
-44.607 6.733 -45.115 7.045 QT
-45.623 7.358 -45.92 7.889 QT
-45.92 11.483 L
cp
f
GR
GS
[1 0 0 1 290.00021 396.60001] CT
0.149 GC
N
-39.427 11.467 M
-39.427 10.577 -38.723 10.014 QT
-38.02 9.452 -37.028 9.217 QT
-36.036 8.983 -35.161 8.983 QT
-35.161 8.373 L
-35.161 7.936 -35.348 7.53 QT
-35.536 7.123 -35.895 6.866 QT
-36.255 6.608 -36.692 6.608 QT
-37.677 6.608 -38.208 7.061 QT
-37.911 7.061 -37.731 7.272 QT
-37.552 7.483 -37.552 7.78 QT
-37.552 8.077 -37.762 8.288 QT
-37.973 8.498 -38.255 8.498 QT
-38.567 8.498 -38.778 8.288 QT
-38.989 8.077 -38.989 7.78 QT
-38.989 6.983 -38.27 6.6 QT
-37.552 6.217 -36.692 6.217 QT
-36.083 6.217 -35.466 6.475 QT
-34.848 6.733 -34.458 7.217 QT
-34.067 7.702 -34.067 8.342 QT
-34.067 11.717 L
-34.067 12.014 -33.942 12.256 QT
-33.817 12.498 -33.552 12.498 QT
-33.302 12.498 -33.184 12.248 QT
-33.067 11.998 -33.067 11.717 QT
-33.067 10.764 L
-32.63 10.764 L
-32.63 11.717 L
-32.63 12.061 -32.802 12.366 QT
-32.973 12.67 -33.27 12.85 QT
-33.567 13.03 -33.911 13.03 QT
-34.348 13.03 -34.669 12.686 QT
-34.989 12.342 -35.02 11.873 QT
-35.302 12.436 -35.841 12.772 QT
-36.38 13.108 -37.005 13.108 QT
-37.567 13.108 -38.122 12.936 QT
-38.677 12.764 -39.052 12.405 QT
-39.427 12.045 -39.427 11.467 QT
cp
-38.208 11.467 M
-38.208 11.998 -37.817 12.35 QT
-37.427 12.702 -36.895 12.702 QT
-36.411 12.702 -36.02 12.467 QT
-35.63 12.233 -35.395 11.811 QT
-35.161 11.389 -35.161 10.936 QT
-35.161 9.373 L
-35.833 9.373 -36.552 9.592 QT
-37.27 9.811 -37.739 10.288 QT
-38.208 10.764 -38.208 11.467 QT
cp
f
GR
GS
[1 0 0 1 290.00021 396.60001] CT
0.149 GC
N
-31.93 12.936 M
-31.93 12.405 L
-31.414 12.405 -31.086 12.327 QT
-30.758 12.248 -30.758 11.936 QT
-30.758 7.842 L
-30.758 7.436 -30.883 7.256 QT
-31.008 7.077 -31.234 7.038 QT
-31.461 6.998 -31.93 6.998 QT
-31.93 6.467 L
-29.789 6.311 L
-29.789 7.78 L
-29.539 7.123 -29.094 6.717 QT
-28.648 6.311 -28.008 6.311 QT
-27.57 6.311 -27.219 6.577 QT
-26.867 6.842 -26.867 7.264 QT
-26.867 7.545 -27.062 7.741 QT
-27.258 7.936 -27.539 7.936 QT
-27.82 7.936 -28.016 7.741 QT
-28.211 7.545 -28.211 7.264 QT
-28.211 6.858 -27.93 6.702 QT
-28.008 6.702 L
-28.617 6.702 -29 7.139 QT
-29.383 7.577 -29.547 8.225 QT
-29.711 8.873 -29.711 9.467 QT
-29.711 11.936 L
-29.711 12.405 -28.258 12.405 QT
-28.258 12.936 L
-31.93 12.936 L
cp
f
GR
GS
[1 0 0 1 290.00021 396.60001] CT
0.149 GC
N
-25.695 11.467 M
-25.695 10.577 -24.992 10.014 QT
-24.289 9.452 -23.296 9.217 QT
-22.304 8.983 -21.429 8.983 QT
-21.429 8.373 L
-21.429 7.936 -21.617 7.53 QT
-21.804 7.123 -22.164 6.866 QT
-22.523 6.608 -22.96 6.608 QT
-23.945 6.608 -24.476 7.061 QT
-24.179 7.061 -24 7.272 QT
-23.82 7.483 -23.82 7.78 QT
-23.82 8.077 -24.031 8.288 QT
-24.242 8.498 -24.523 8.498 QT
-24.835 8.498 -25.046 8.288 QT
-25.257 8.077 -25.257 7.78 QT
-25.257 6.983 -24.539 6.6 QT
-23.82 6.217 -22.96 6.217 QT
-22.351 6.217 -21.734 6.475 QT
-21.117 6.733 -20.726 7.217 QT
-20.335 7.702 -20.335 8.342 QT
-20.335 11.717 L
-20.335 12.014 -20.21 12.256 QT
-20.085 12.498 -19.82 12.498 QT
-19.57 12.498 -19.453 12.248 QT
-19.335 11.998 -19.335 11.717 QT
-19.335 10.764 L
-18.898 10.764 L
-18.898 11.717 L
-18.898 12.061 -19.07 12.366 QT
-19.242 12.67 -19.539 12.85 QT
-19.835 13.03 -20.179 13.03 QT
-20.617 13.03 -20.937 12.686 QT
-21.257 12.342 -21.289 11.873 QT
-21.57 12.436 -22.109 12.772 QT
-22.648 13.108 -23.273 13.108 QT
-23.835 13.108 -24.39 12.936 QT
-24.945 12.764 -25.32 12.405 QT
-25.695 12.045 -25.695 11.467 QT
cp
-24.476 11.467 M
-24.476 11.998 -24.085 12.35 QT
-23.695 12.702 -23.164 12.702 QT
-22.679 12.702 -22.289 12.467 QT
-21.898 12.233 -21.664 11.811 QT
-21.429 11.389 -21.429 10.936 QT
-21.429 9.373 L
-22.101 9.373 -22.82 9.592 QT
-23.539 9.811 -24.007 10.288 QT
-24.476 10.764 -24.476 11.467 QT
cp
f
GR
GS
[1 0 0 1 290.00021 396.60001] CT
0.149 GC
N
-18.135 12.936 M
-18.135 12.405 L
-17.635 12.405 -17.299 12.327 QT
-16.964 12.248 -16.964 11.936 QT
-16.964 7.842 L
-16.964 7.436 -17.089 7.256 QT
-17.214 7.077 -17.44 7.038 QT
-17.667 6.998 -18.135 6.998 QT
-18.135 6.467 L
-15.964 6.311 L
-15.964 7.78 L
-15.667 7.123 -15.073 6.717 QT
-14.479 6.311 -13.792 6.311 QT
-12.057 6.311 -11.76 7.717 QT
-11.464 7.077 -10.885 6.694 QT
-10.307 6.311 -9.62 6.311 QT
-8.932 6.311 -8.471 6.53 QT
-8.01 6.748 -7.776 7.202 QT
-7.542 7.655 -7.542 8.327 QT
-7.542 11.936 L
-7.542 12.248 -7.206 12.327 QT
-6.87 12.405 -6.37 12.405 QT
-6.37 12.936 L
-9.792 12.936 L
-9.792 12.405 L
-9.292 12.405 -8.956 12.327 QT
-8.62 12.248 -8.62 11.936 QT
-8.62 8.373 L
-8.62 7.623 -8.839 7.163 QT
-9.057 6.702 -9.714 6.702 QT
-10.573 6.702 -11.135 7.397 QT
-11.698 8.092 -11.698 8.967 QT
-11.698 11.936 L
-11.698 12.248 -11.37 12.327 QT
-11.042 12.405 -10.526 12.405 QT
-10.526 12.936 L
-13.964 12.936 L
-13.964 12.405 L
-13.448 12.405 -13.12 12.327 QT
-12.792 12.248 -12.792 11.936 QT
-12.792 8.373 L
-12.792 7.639 -13.003 7.17 QT
-13.214 6.702 -13.885 6.702 QT
-14.745 6.702 -15.307 7.397 QT
-15.87 8.092 -15.87 8.967 QT
-15.87 11.936 L
-15.87 12.248 -15.542 12.327 QT
-15.214 12.405 -14.714 12.405 QT
-14.714 12.936 L
-18.135 12.936 L
cp
f
GR
GS
[1 0 0 1 290.00021 396.60001] CT
0.149 GC
N
-2.021 13.108 M
-2.943 13.108 -3.7 12.623 QT
-4.458 12.139 -4.896 11.342 QT
-5.333 10.545 -5.333 9.655 QT
-5.333 8.764 -4.935 7.975 QT
-4.536 7.186 -3.825 6.702 QT
-3.115 6.217 -2.24 6.217 QT
-1.536 6.217 -1.029 6.444 QT
-0.521 6.67 -0.193 7.084 QT
0.135 7.498 0.3 8.053 QT
0.464 8.608 0.464 9.28 QT
0.464 9.467 0.323 9.467 QT
-4.021 9.467 L
-4.021 9.639 L
-4.021 10.873 -3.521 11.772 QT
-3.021 12.67 -1.88 12.67 QT
-1.427 12.67 -1.036 12.459 QT
-0.646 12.248 -0.357 11.889 QT
-0.068 11.53 0.042 11.108 QT
0.057 11.061 0.096 11.014 QT
0.135 10.967 0.182 10.967 QT
0.323 10.967 L
0.464 10.967 0.464 11.17 QT
0.26 12.014 -0.443 12.561 QT
-1.146 13.108 -2.021 13.108 QT
cp
-4.005 9.092 M
-0.599 9.092 L
-0.599 8.53 -0.755 7.952 QT
-0.911 7.373 -1.279 6.991 QT
-1.646 6.608 -2.24 6.608 QT
-3.083 6.608 -3.544 7.405 QT
-4.005 8.202 -4.005 9.092 QT
cp
f
GR
GS
[1 0 0 1 290.00021 396.60001] CT
0.149 GC
N
2.621 11.139 M
2.621 6.998 L
1.371 6.998 L
1.371 6.608 L
2.355 6.608 2.816 5.694 QT
3.277 4.78 3.277 3.702 QT
3.714 3.702 L
3.714 6.467 L
5.824 6.467 L
5.824 6.998 L
3.714 6.998 L
3.714 11.108 L
3.714 11.733 3.925 12.202 QT
4.136 12.67 4.667 12.67 QT
5.183 12.67 5.41 12.17 QT
5.636 11.67 5.636 11.108 QT
5.636 10.217 L
6.074 10.217 L
6.074 11.139 L
6.074 11.608 5.902 12.061 QT
5.73 12.514 5.394 12.811 QT
5.058 13.108 4.574 13.108 QT
3.667 13.108 3.144 12.569 QT
2.621 12.03 2.621 11.139 QT
cp
f
GR
GS
[1 0 0 1 290.00021 396.60001] CT
0.149 GC
N
10.813 13.108 M
9.891 13.108 9.133 12.623 QT
8.375 12.139 7.938 11.342 QT
7.5 10.545 7.5 9.655 QT
7.5 8.764 7.898 7.975 QT
8.297 7.186 9.008 6.702 QT
9.719 6.217 10.594 6.217 QT
11.297 6.217 11.805 6.444 QT
12.313 6.67 12.641 7.084 QT
12.969 7.498 13.133 8.053 QT
13.297 8.608 13.297 9.28 QT
13.297 9.467 13.156 9.467 QT
8.813 9.467 L
8.813 9.639 L
8.813 10.873 9.313 11.772 QT
9.813 12.67 10.953 12.67 QT
11.406 12.67 11.797 12.459 QT
12.188 12.248 12.477 11.889 QT
12.766 11.53 12.875 11.108 QT
12.891 11.061 12.93 11.014 QT
12.969 10.967 13.016 10.967 QT
13.156 10.967 L
13.297 10.967 13.297 11.17 QT
13.094 12.014 12.391 12.561 QT
11.688 13.108 10.813 13.108 QT
cp
8.828 9.092 M
12.234 9.092 L
12.234 8.53 12.078 7.952 QT
11.922 7.373 11.555 6.991 QT
11.188 6.608 10.594 6.608 QT
9.75 6.608 9.289 7.405 QT
8.828 8.202 8.828 9.092 QT
cp
f
GR
GS
[1 0 0 1 290.00021 396.60001] CT
0.149 GC
N
14.313 12.936 M
14.313 12.405 L
14.829 12.405 15.157 12.327 QT
15.485 12.248 15.485 11.936 QT
15.485 7.842 L
15.485 7.436 15.36 7.256 QT
15.235 7.077 15.009 7.038 QT
14.782 6.998 14.313 6.998 QT
14.313 6.467 L
16.454 6.311 L
16.454 7.78 L
16.704 7.123 17.149 6.717 QT
17.594 6.311 18.235 6.311 QT
18.673 6.311 19.024 6.577 QT
19.376 6.842 19.376 7.264 QT
19.376 7.545 19.18 7.741 QT
18.985 7.936 18.704 7.936 QT
18.423 7.936 18.227 7.741 QT
18.032 7.545 18.032 7.264 QT
18.032 6.858 18.313 6.702 QT
18.235 6.702 L
17.626 6.702 17.243 7.139 QT
16.86 7.577 16.696 8.225 QT
16.532 8.873 16.532 9.467 QT
16.532 11.936 L
16.532 12.405 17.985 12.405 QT
17.985 12.936 L
14.313 12.936 L
cp
f
GR
GS
[1 0 0 1 290.00021 396.60001] CT
0.149 GC
N
26.931 10.827 M
26.931 11.327 27.119 11.756 QT
27.306 12.186 27.674 12.444 QT
28.041 12.702 28.541 12.702 QT
28.869 12.702 29.252 12.561 QT
29.634 12.42 29.963 12.241 QT
30.291 12.061 30.291 12.061 QT
30.369 12.061 30.424 12.155 QT
30.478 12.248 30.478 12.342 QT
30.478 12.42 30.431 12.436 QT
29.494 13.108 28.525 13.108 QT
27.728 13.108 27.095 12.733 QT
26.463 12.358 26.111 11.702 QT
25.759 11.045 25.759 10.264 QT
25.759 9.483 26.072 8.788 QT
26.384 8.092 26.947 7.569 QT
27.509 7.045 28.213 6.756 QT
28.916 6.467 29.681 6.467 QT
30.525 6.467 L
30.759 6.467 30.759 6.702 QT
30.759 6.827 30.674 6.913 QT
30.588 6.998 30.478 6.998 QT
29.65 6.998 L
29.056 6.998 28.564 7.264 QT
28.072 7.53 27.744 7.998 QT
27.416 8.467 27.228 9.061 QT
29.884 9.061 L
29.994 9.061 30.056 9.123 QT
30.119 9.186 30.119 9.28 QT
30.119 9.405 30.033 9.491 QT
29.947 9.577 29.822 9.577 QT
27.088 9.577 L
26.931 10.358 26.931 10.827 QT
cp
f
GR
GS
[1 0 0 1 290.00021 396.60001] CT
0.149 GC
N
31.854 15.246 M
31.745 15.246 31.745 15.105 QT
31.745 15.074 31.768 15.004 QT
31.792 14.933 31.815 14.894 QT
31.839 14.855 31.885 14.855 QT
32.932 14.855 33.104 14.183 QT
34.604 8.168 L
34.292 8.121 33.635 8.121 QT
33.526 8.121 33.526 7.98 QT
33.542 7.949 33.557 7.879 QT
33.573 7.808 33.596 7.769 QT
33.62 7.73 33.667 7.73 QT
35.573 7.73 L
35.651 7.73 35.667 7.808 QT
38.12 13.621 L
39.339 8.746 L
39.354 8.621 39.354 8.574 QT
39.354 8.121 38.51 8.121 QT
38.401 8.121 38.401 7.98 QT
38.432 7.84 38.456 7.785 QT
38.479 7.73 38.589 7.73 QT
40.948 7.73 L
41.057 7.73 41.057 7.871 QT
41.042 7.902 41.026 7.972 QT
41.01 8.043 40.979 8.082 QT
40.948 8.121 40.917 8.121 QT
39.854 8.121 39.682 8.793 QT
38.104 15.152 L
38.073 15.246 37.995 15.246 QT
37.854 15.246 L
37.792 15.246 37.76 15.168 QT
34.964 8.512 L
34.932 8.449 L
34.917 8.418 34.917 8.418 QT
33.464 14.23 L
33.448 14.262 33.44 14.301 QT
33.432 14.34 33.432 14.402 QT
33.432 14.683 33.674 14.769 QT
33.917 14.855 34.292 14.855 QT
34.401 14.855 34.401 15.012 QT
34.354 15.152 34.331 15.199 QT
34.307 15.246 34.214 15.246 QT
31.854 15.246 L
cp
f
GR
GS
[1 0 0 1 290.00021 396.60001] CT
0.149 GC
N
43.43 15.639 M
43.43 15.577 43.492 15.514 QT
44.039 14.998 44.336 14.319 QT
44.633 13.639 44.633 12.873 QT
44.633 12.702 L
44.398 12.936 44.039 12.936 QT
43.695 12.936 43.453 12.694 QT
43.211 12.452 43.211 12.108 QT
43.211 11.764 43.453 11.53 QT
43.695 11.295 44.039 11.295 QT
44.57 11.295 44.797 11.788 QT
45.023 12.28 45.023 12.873 QT
45.023 13.717 44.687 14.467 QT
44.352 15.217 43.742 15.811 QT
43.695 15.842 43.648 15.842 QT
43.586 15.842 43.508 15.78 QT
43.43 15.717 43.43 15.639 QT
cp
f
GR
GS
[1 0 0 1 290.00021 396.60001] CT
0.149 GC
N
53.122 16.686 M
53.122 1.686 L
55.185 1.686 L
55.185 2.28 L
53.731 2.28 L
53.731 16.092 L
55.185 16.092 L
55.185 16.686 L
53.122 16.686 L
cp
f
GR
GS
[1 0 0 1 290.00021 396.60001] CT
0.149 GC
N
56.103 12.936 M
56.103 12.405 L
57.634 12.405 57.634 11.53 QT
57.634 3.311 L
57.15 3.217 56.103 3.217 QT
56.103 2.686 L
58.962 2.686 L
59.04 2.686 59.072 2.748 QT
64.384 10.561 L
64.384 4.108 L
64.384 3.217 62.837 3.217 QT
62.837 2.686 L
66.4 2.686 L
66.4 3.217 L
64.869 3.217 64.869 4.108 QT
64.869 12.811 L
64.869 12.842 64.806 12.889 QT
64.744 12.936 64.712 12.936 QT
64.525 12.936 L
64.447 12.936 64.431 12.873 QT
58.119 3.608 L
58.119 11.53 L
58.119 12.405 59.665 12.405 QT
59.665 12.936 L
56.103 12.936 L
cp
f
GR
GS
[1 0 0 1 290.00021 396.60001] CT
0.149 GC
N
68.028 16.389 M
68.028 16.342 68.044 16.327 QT
73.262 1.873 L
73.278 1.78 73.356 1.733 QT
73.434 1.686 73.528 1.686 QT
73.653 1.686 73.739 1.764 QT
73.825 1.842 73.825 1.983 QT
73.825 2.045 L
68.606 16.498 L
68.528 16.686 68.325 16.686 QT
68.2 16.686 68.114 16.6 QT
68.028 16.514 68.028 16.389 QT
cp
f
GR
GS
[1 0 0 1 290.00021 396.60001] CT
0.149 GC
N
75.337 12.936 M
75.337 12.405 L
75.837 12.405 76.173 12.327 QT
76.509 12.248 76.509 11.936 QT
76.509 7.842 L
76.509 7.436 76.384 7.256 QT
76.259 7.077 76.033 7.038 QT
75.806 6.998 75.337 6.998 QT
75.337 6.467 L
77.509 6.311 L
77.509 7.78 L
77.806 7.123 78.4 6.717 QT
78.994 6.311 79.681 6.311 QT
81.415 6.311 81.712 7.717 QT
82.009 7.077 82.587 6.694 QT
83.165 6.311 83.853 6.311 QT
84.54 6.311 85.001 6.53 QT
85.462 6.748 85.697 7.202 QT
85.931 7.655 85.931 8.327 QT
85.931 11.936 L
85.931 12.248 86.267 12.327 QT
86.603 12.405 87.103 12.405 QT
87.103 12.936 L
83.681 12.936 L
83.681 12.405 L
84.181 12.405 84.517 12.327 QT
84.853 12.248 84.853 11.936 QT
84.853 8.373 L
84.853 7.623 84.634 7.163 QT
84.415 6.702 83.759 6.702 QT
82.9 6.702 82.337 7.397 QT
81.775 8.092 81.775 8.967 QT
81.775 11.936 L
81.775 12.248 82.103 12.327 QT
82.431 12.405 82.947 12.405 QT
82.947 12.936 L
79.509 12.936 L
79.509 12.405 L
80.025 12.405 80.353 12.327 QT
80.681 12.248 80.681 11.936 QT
80.681 8.373 L
80.681 7.639 80.47 7.17 QT
80.259 6.702 79.587 6.702 QT
78.728 6.702 78.165 7.397 QT
77.603 8.092 77.603 8.967 QT
77.603 11.936 L
77.603 12.248 77.931 12.327 QT
78.259 12.405 78.759 12.405 QT
78.759 12.936 L
75.337 12.936 L
cp
f
GR
GS
[1 0 0 1 290.00021 396.60001] CT
0.149 GC
N
88.171 12.936 M
88.171 12.405 L
88.671 12.405 89.007 12.327 QT
89.343 12.248 89.343 11.936 QT
89.343 7.842 L
89.343 7.436 89.218 7.256 QT
89.093 7.077 88.866 7.038 QT
88.639 6.998 88.171 6.998 QT
88.171 6.467 L
90.343 6.311 L
90.343 7.78 L
90.639 7.123 91.233 6.717 QT
91.827 6.311 92.514 6.311 QT
94.249 6.311 94.546 7.717 QT
94.843 7.077 95.421 6.694 QT
95.999 6.311 96.686 6.311 QT
97.374 6.311 97.835 6.53 QT
98.296 6.748 98.53 7.202 QT
98.764 7.655 98.764 8.327 QT
98.764 11.936 L
98.764 12.248 99.1 12.327 QT
99.436 12.405 99.936 12.405 QT
99.936 12.936 L
96.514 12.936 L
96.514 12.405 L
97.014 12.405 97.35 12.327 QT
97.686 12.248 97.686 11.936 QT
97.686 8.373 L
97.686 7.623 97.468 7.163 QT
97.249 6.702 96.593 6.702 QT
95.733 6.702 95.171 7.397 QT
94.608 8.092 94.608 8.967 QT
94.608 11.936 L
94.608 12.248 94.936 12.327 QT
95.264 12.405 95.78 12.405 QT
95.78 12.936 L
92.343 12.936 L
92.343 12.405 L
92.858 12.405 93.186 12.327 QT
93.514 12.248 93.514 11.936 QT
93.514 8.373 L
93.514 7.639 93.304 7.17 QT
93.093 6.702 92.421 6.702 QT
91.561 6.702 90.999 7.397 QT
90.436 8.092 90.436 8.967 QT
90.436 11.936 L
90.436 12.248 90.764 12.327 QT
91.093 12.405 91.593 12.405 QT
91.593 12.936 L
88.171 12.936 L
cp
f
GR
GS
[1 0 0 1 290.00021 396.60001] CT
0.149 GC
N
100.879 16.686 M
100.879 16.092 L
102.332 16.092 L
102.332 2.28 L
100.879 2.28 L
100.879 1.686 L
102.942 1.686 L
102.942 16.686 L
100.879 16.686 L
cp
f
GR
GS
[1 0 0 1 507 396.60001] CT
0.149 GC
N
-28.426 11.354 M
-28.426 11.244 -28.364 11.151 QT
-25.458 8.26 L
-28.364 5.354 L
-28.426 5.276 -28.426 5.166 QT
-28.426 5.057 -28.348 4.971 QT
-28.27 4.885 -28.145 4.885 QT
-28.051 4.885 -27.942 4.979 QT
-25.036 7.869 L
-22.161 4.979 L
-22.036 4.885 -21.958 4.885 QT
-21.833 4.885 -21.755 4.963 QT
-21.676 5.041 -21.676 5.166 QT
-21.676 5.276 -21.739 5.354 QT
-24.645 8.26 L
-21.739 11.151 L
-21.676 11.244 -21.676 11.354 QT
-21.676 11.479 -21.755 11.557 QT
-21.833 11.635 -21.958 11.635 QT
-22.051 11.635 -22.161 11.541 QT
-25.036 8.651 L
-27.942 11.541 L
-28.036 11.635 -28.145 11.635 QT
-28.27 11.635 -28.348 11.549 QT
-28.426 11.463 -28.426 11.354 QT
cp
f
GR
GS
[1 0 0 1 507 396.60001] CT
0.149 GC
N
-18.303 11.76 M
-18.303 11.26 L
-16.553 11.26 -16.553 10.822 QT
-16.553 3.479 L
-17.272 3.822 -18.381 3.822 QT
-18.381 3.338 L
-16.663 3.338 -15.788 2.432 QT
-15.6 2.432 L
-15.553 2.432 -15.506 2.471 QT
-15.459 2.51 -15.459 2.557 QT
-15.459 10.822 L
-15.459 11.26 -13.709 11.26 QT
-13.709 11.76 L
-18.303 11.76 L
cp
f
GR
GS
[1 0 0 1 507 396.60001] CT
0.149 GC
N
-9.1 12.072 M
-10.819 12.072 -11.436 10.658 QT
-12.053 9.244 -12.053 7.291 QT
-12.053 6.072 -11.834 5.002 QT
-11.616 3.932 -10.952 3.182 QT
-10.288 2.432 -9.1 2.432 QT
-8.178 2.432 -7.592 2.885 QT
-7.006 3.338 -6.694 4.049 QT
-6.381 4.76 -6.272 5.58 QT
-6.163 6.401 -6.163 7.291 QT
-6.163 8.494 -6.381 9.549 QT
-6.6 10.604 -7.248 11.338 QT
-7.897 12.072 -9.1 12.072 QT
cp
-9.1 11.697 M
-8.319 11.697 -7.936 10.901 QT
-7.553 10.104 -7.467 9.135 QT
-7.381 8.166 -7.381 7.072 QT
-7.381 6.01 -7.467 5.127 QT
-7.553 4.244 -7.936 3.518 QT
-8.319 2.791 -9.1 2.791 QT
-9.897 2.791 -10.28 3.518 QT
-10.663 4.244 -10.748 5.127 QT
-10.834 6.01 -10.834 7.072 QT
-10.834 7.854 -10.795 8.541 QT
-10.756 9.229 -10.592 9.963 QT
-10.428 10.697 -10.061 11.197 QT
-9.694 11.697 -9.1 11.697 QT
cp
f
GR
GS
[1 0 0 1 507 396.60001] CT
0.149 GC
N
-3.1 6.898 M
-3.725 6.898 -4.139 6.57 QT
-4.553 6.242 -4.78 5.719 QT
-5.006 5.195 -5.092 4.617 QT
-5.178 4.039 -5.178 3.445 QT
-5.178 2.648 -4.873 1.859 QT
-4.569 1.07 -3.967 0.547 QT
-3.366 0.023 -2.553 0.023 QT
-2.209 0.023 -1.912 0.148 QT
-1.616 0.273 -1.444 0.523 QT
-1.272 0.773 -1.272 1.133 QT
-1.272 1.336 -1.412 1.476 QT
-1.553 1.617 -1.756 1.617 QT
-1.959 1.617 -2.1 1.476 QT
-2.241 1.336 -2.241 1.133 QT
-2.241 0.945 -2.1 0.804 QT
-1.959 0.664 -1.756 0.664 QT
-1.709 0.664 L
-1.834 0.476 -2.069 0.39 QT
-2.303 0.304 -2.553 0.304 QT
-2.85 0.304 -3.108 0.437 QT
-3.366 0.57 -3.569 0.797 QT
-3.772 1.023 -3.912 1.289 QT
-4.053 1.554 -4.123 1.906 QT
-4.194 2.258 -4.217 2.562 QT
-4.241 2.867 -4.241 3.32 QT
-4.069 2.914 -3.741 2.648 QT
-3.412 2.383 -3.006 2.383 QT
-2.569 2.383 -2.202 2.562 QT
-1.834 2.742 -1.569 3.062 QT
-1.303 3.383 -1.162 3.797 QT
-1.022 4.211 -1.022 4.633 QT
-1.022 5.211 -1.287 5.742 QT
-1.553 6.273 -2.03 6.586 QT
-2.506 6.898 -3.1 6.898 QT
cp
-3.1 6.586 M
-2.709 6.586 -2.475 6.406 QT
-2.241 6.226 -2.131 5.937 QT
-2.022 5.648 -1.998 5.351 QT
-1.975 5.054 -1.975 4.633 QT
-1.975 4.054 -2.03 3.656 QT
-2.084 3.258 -2.319 2.953 QT
-2.553 2.648 -3.053 2.648 QT
-3.459 2.648 -3.717 2.922 QT
-3.975 3.195 -4.1 3.617 QT
-4.225 4.039 -4.225 4.414 QT
-4.225 4.554 -4.209 4.617 QT
-4.209 4.633 -4.209 4.64 QT
-4.209 4.648 -4.225 4.664 QT
-4.225 5.101 -4.131 5.539 QT
-4.037 5.976 -3.787 6.281 QT
-3.537 6.586 -3.1 6.586 QT
cp
f
GR
GS
0.149 GC
2 setlinecap
1 LJ
0.5 LW
N
73 374 M
73 31 L
S
GR
GS
0.149 GC
2 setlinecap
1 LJ
0.5 LW
N
507 374 M
507 31 L
S
GR
GS
0.149 GC
2 setlinecap
1 LJ
0.5 LW
N
73 374 M
77.34 374 L
S
GR
GS
0.149 GC
2 setlinecap
1 LJ
0.5 LW
N
73 335.889 M
77.34 335.889 L
S
GR
GS
0.149 GC
2 setlinecap
1 LJ
0.5 LW
N
73 297.778 M
77.34 297.778 L
S
GR
GS
0.149 GC
2 setlinecap
1 LJ
0.5 LW
N
73 259.667 M
77.34 259.667 L
S
GR
GS
0.149 GC
2 setlinecap
1 LJ
0.5 LW
N
73 221.556 M
77.34 221.556 L
S
GR
GS
0.149 GC
2 setlinecap
1 LJ
0.5 LW
N
73 183.444 M
77.34 183.444 L
S
GR
GS
0.149 GC
2 setlinecap
1 LJ
0.5 LW
N
73 145.333 M
77.34 145.333 L
S
GR
GS
0.149 GC
2 setlinecap
1 LJ
0.5 LW
N
73 107.222 M
77.34 107.222 L
S
GR
GS
0.149 GC
2 setlinecap
1 LJ
0.5 LW
N
73 69.111 M
77.34 69.111 L
S
GR
GS
0.149 GC
2 setlinecap
1 LJ
0.5 LW
N
73 31 M
77.34 31 L
S
GR
GS
0.149 GC
2 setlinecap
1 LJ
0.5 LW
N
507 374 M
502.66 374 L
S
GR
GS
0.149 GC
2 setlinecap
1 LJ
0.5 LW
N
507 335.889 M
502.66 335.889 L
S
GR
GS
0.149 GC
2 setlinecap
1 LJ
0.5 LW
N
507 297.778 M
502.66 297.778 L
S
GR
GS
0.149 GC
2 setlinecap
1 LJ
0.5 LW
N
507 259.667 M
502.66 259.667 L
S
GR
GS
0.149 GC
2 setlinecap
1 LJ
0.5 LW
N
507 221.556 M
502.66 221.556 L
S
GR
GS
0.149 GC
2 setlinecap
1 LJ
0.5 LW
N
507 183.444 M
502.66 183.444 L
S
GR
GS
0.149 GC
2 setlinecap
1 LJ
0.5 LW
N
507 145.333 M
502.66 145.333 L
S
GR
GS
0.149 GC
2 setlinecap
1 LJ
0.5 LW
N
507 107.222 M
502.66 107.222 L
S
GR
GS
0.149 GC
2 setlinecap
1 LJ
0.5 LW
N
507 69.111 M
502.66 69.111 L
S
GR
GS
0.149 GC
2 setlinecap
1 LJ
0.5 LW
N
507 31 M
502.66 31 L
S
GR
GS
[1 0 0 1 68.2 374] CT
0.149 GC
N
-3.5 3.672 M
-5.219 3.672 -5.836 2.258 QT
-6.453 0.844 -6.453 -1.109 QT
-6.453 -2.328 -6.234 -3.398 QT
-6.016 -4.468 -5.352 -5.218 QT
-4.688 -5.968 -3.5 -5.968 QT
-2.578 -5.968 -1.992 -5.515 QT
-1.406 -5.062 -1.094 -4.351 QT
-0.781 -3.64 -0.672 -2.82 QT
-0.563 -1.999 -0.563 -1.109 QT
-0.563 0.094 -0.781 1.149 QT
-1 2.204 -1.648 2.938 QT
-2.297 3.672 -3.5 3.672 QT
cp
-3.5 3.297 M
-2.719 3.297 -2.336 2.501 QT
-1.953 1.704 -1.867 0.735 QT
-1.781 -0.234 -1.781 -1.328 QT
-1.781 -2.39 -1.867 -3.273 QT
-1.953 -4.156 -2.336 -4.882 QT
-2.719 -5.609 -3.5 -5.609 QT
-4.297 -5.609 -4.68 -4.882 QT
-5.063 -4.156 -5.148 -3.273 QT
-5.234 -2.39 -5.234 -1.328 QT
-5.234 -0.546 -5.195 0.141 QT
-5.156 0.829 -4.992 1.563 QT
-4.828 2.297 -4.461 2.797 QT
-4.094 3.297 -3.5 3.297 QT
cp
f
GR
GS
[1 0 0 1 68.2 335.88889] CT
0.149 GC
N
-28.389 3.672 M
-30.108 3.672 -30.725 2.258 QT
-31.342 0.844 -31.342 -1.109 QT
-31.342 -2.328 -31.123 -3.398 QT
-30.905 -4.468 -30.241 -5.218 QT
-29.576 -5.968 -28.389 -5.968 QT
-27.467 -5.968 -26.881 -5.515 QT
-26.295 -5.062 -25.983 -4.351 QT
-25.67 -3.64 -25.561 -2.82 QT
-25.451 -1.999 -25.451 -1.109 QT
-25.451 0.094 -25.67 1.149 QT
-25.889 2.204 -26.537 2.938 QT
-27.186 3.672 -28.389 3.672 QT
cp
-28.389 3.297 M
-27.608 3.297 -27.225 2.501 QT
-26.842 1.704 -26.756 0.735 QT
-26.67 -0.234 -26.67 -1.328 QT
-26.67 -2.39 -26.756 -3.273 QT
-26.842 -4.156 -27.225 -4.882 QT
-27.608 -5.609 -28.389 -5.609 QT
-29.186 -5.609 -29.569 -4.882 QT
-29.951 -4.156 -30.037 -3.273 QT
-30.123 -2.39 -30.123 -1.328 QT
-30.123 -0.546 -30.084 0.141 QT
-30.045 0.829 -29.881 1.563 QT
-29.717 2.297 -29.35 2.797 QT
-28.983 3.297 -28.389 3.297 QT
cp
f
GR
GS
[1 0 0 1 68.2 335.88889] CT
0.149 GC
N
-23.717 2.594 M
-23.717 2.266 -23.483 2.047 QT
-23.248 1.829 -22.936 1.829 QT
-22.748 1.829 -22.561 1.93 QT
-22.373 2.032 -22.272 2.212 QT
-22.17 2.391 -22.17 2.594 QT
-22.17 2.891 -22.397 3.126 QT
-22.623 3.36 -22.936 3.36 QT
-23.248 3.36 -23.483 3.126 QT
-23.717 2.891 -23.717 2.594 QT
cp
f
GR
GS
[1 0 0 1 68.2 335.88889] CT
0.149 GC
N
-17.5 3.672 M
-19.219 3.672 -19.836 2.258 QT
-20.453 0.844 -20.453 -1.109 QT
-20.453 -2.328 -20.234 -3.398 QT
-20.016 -4.468 -19.352 -5.218 QT
-18.688 -5.968 -17.5 -5.968 QT
-16.578 -5.968 -15.992 -5.515 QT
-15.406 -5.062 -15.094 -4.351 QT
-14.781 -3.64 -14.672 -2.82 QT
-14.563 -1.999 -14.563 -1.109 QT
-14.563 0.094 -14.781 1.149 QT
-15 2.204 -15.649 2.938 QT
-16.297 3.672 -17.5 3.672 QT
cp
-17.5 3.297 M
-16.719 3.297 -16.336 2.501 QT
-15.953 1.704 -15.867 0.735 QT
-15.781 -0.234 -15.781 -1.328 QT
-15.781 -2.39 -15.867 -3.273 QT
-15.953 -4.156 -16.336 -4.882 QT
-16.719 -5.609 -17.5 -5.609 QT
-18.297 -5.609 -18.68 -4.882 QT
-19.063 -4.156 -19.149 -3.273 QT
-19.234 -2.39 -19.234 -1.328 QT
-19.234 -0.546 -19.195 0.141 QT
-19.156 0.829 -18.992 1.563 QT
-18.828 2.297 -18.461 2.797 QT
-18.094 3.297 -17.5 3.297 QT
cp
f
GR
GS
[1 0 0 1 68.2 335.88889] CT
0.149 GC
N
-10.5 3.672 M
-12.219 3.672 -12.836 2.258 QT
-13.453 0.844 -13.453 -1.109 QT
-13.453 -2.328 -13.234 -3.398 QT
-13.016 -4.468 -12.352 -5.218 QT
-11.688 -5.968 -10.5 -5.968 QT
-9.578 -5.968 -8.992 -5.515 QT
-8.406 -5.062 -8.094 -4.351 QT
-7.781 -3.64 -7.672 -2.82 QT
-7.563 -1.999 -7.563 -1.109 QT
-7.563 0.094 -7.781 1.149 QT
-8 2.204 -8.648 2.938 QT
-9.297 3.672 -10.5 3.672 QT
cp
-10.5 3.297 M
-9.719 3.297 -9.336 2.501 QT
-8.953 1.704 -8.867 0.735 QT
-8.781 -0.234 -8.781 -1.328 QT
-8.781 -2.39 -8.867 -3.273 QT
-8.953 -4.156 -9.336 -4.882 QT
-9.719 -5.609 -10.5 -5.609 QT
-11.297 -5.609 -11.68 -4.882 QT
-12.063 -4.156 -12.148 -3.273 QT
-12.234 -2.39 -12.234 -1.328 QT
-12.234 -0.546 -12.195 0.141 QT
-12.156 0.829 -11.992 1.563 QT
-11.828 2.297 -11.461 2.797 QT
-11.094 3.297 -10.5 3.297 QT
cp
f
GR
GS
[1 0 0 1 68.2 335.88889] CT
0.149 GC
N
-6.297 3.36 M
-6.297 2.985 L
-6.297 2.954 -6.281 2.907 QT
-4.094 0.501 L
-3.609 -0.031 -3.305 -0.39 QT
-3 -0.749 -2.695 -1.226 QT
-2.391 -1.703 -2.219 -2.187 QT
-2.047 -2.671 -2.047 -3.218 QT
-2.047 -3.796 -2.258 -4.32 QT
-2.469 -4.843 -2.891 -5.156 QT
-3.313 -5.468 -3.906 -5.468 QT
-4.516 -5.468 -5 -5.101 QT
-5.484 -4.734 -5.688 -4.156 QT
-5.625 -4.171 -5.531 -4.171 QT
-5.219 -4.171 -4.992 -3.96 QT
-4.766 -3.749 -4.766 -3.421 QT
-4.766 -3.093 -4.992 -2.874 QT
-5.219 -2.656 -5.531 -2.656 QT
-5.859 -2.656 -6.078 -2.882 QT
-6.297 -3.109 -6.297 -3.421 QT
-6.297 -3.937 -6.102 -4.398 QT
-5.906 -4.859 -5.531 -5.218 QT
-5.156 -5.578 -4.688 -5.773 QT
-4.219 -5.968 -3.703 -5.968 QT
-2.891 -5.968 -2.203 -5.624 QT
-1.516 -5.281 -1.109 -4.663 QT
-0.703 -4.046 -0.703 -3.218 QT
-0.703 -2.609 -0.977 -2.062 QT
-1.25 -1.515 -1.664 -1.07 QT
-2.078 -0.624 -2.727 -0.054 QT
-3.375 0.516 -3.578 0.704 QT
-5.172 2.219 L
-3.828 2.219 L
-2.828 2.219 -2.164 2.204 QT
-1.5 2.188 -1.453 2.157 QT
-1.297 1.985 -1.125 0.86 QT
-0.703 0.86 L
-1.109 3.36 L
-6.297 3.36 L
cp
f
GR
GS
[1 0 0 1 68.2 297.77777] CT
0.149 GC
N
/f-2135406350{-28.389 3.672 M
-30.108 3.672 -30.725 2.258 QT
-31.342 0.844 -31.342 -1.109 QT
-31.342 -2.328 -31.123 -3.398 QT
-30.905 -4.468 -30.241 -5.218 QT
-29.576 -5.968 -28.389 -5.968 QT
-27.467 -5.968 -26.881 -5.515 QT
-26.295 -5.062 -25.983 -4.351 QT
-25.67 -3.64 -25.561 -2.82 QT
-25.451 -1.999 -25.451 -1.109 QT
-25.451 0.094 -25.67 1.149 QT
-25.889 2.204 -26.537 2.938 QT
-27.186 3.672 -28.389 3.672 QT
cp
-28.389 3.297 M
-27.608 3.297 -27.225 2.501 QT
-26.842 1.704 -26.756 0.735 QT
-26.67 -0.234 -26.67 -1.328 QT
-26.67 -2.39 -26.756 -3.273 QT
-26.842 -4.156 -27.225 -4.882 QT
-27.608 -5.609 -28.389 -5.609 QT
-29.186 -5.609 -29.569 -4.882 QT
-29.951 -4.156 -30.037 -3.273 QT
-30.123 -2.39 -30.123 -1.328 QT
-30.123 -0.546 -30.084 0.141 QT
-30.045 0.829 -29.881 1.563 QT
-29.717 2.297 -29.35 2.797 QT
-28.983 3.297 -28.389 3.297 QT
cp}def
f-2135406350
f
GR
GS
[1 0 0 1 68.2 297.77777] CT
0.149 GC
N
/f-683107836{-23.717 2.594 M
-23.717 2.266 -23.483 2.047 QT
-23.248 1.829 -22.936 1.829 QT
-22.748 1.829 -22.561 1.93 QT
-22.373 2.032 -22.272 2.212 QT
-22.17 2.391 -22.17 2.594 QT
-22.17 2.891 -22.397 3.126 QT
-22.623 3.36 -22.936 3.36 QT
-23.248 3.36 -23.483 3.126 QT
-23.717 2.891 -23.717 2.594 QT
cp}def
f-683107836
f
GR
GS
[1 0 0 1 68.2 297.77777] CT
0.149 GC
N
/f-1358722661{-17.5 3.672 M
-19.219 3.672 -19.836 2.258 QT
-20.453 0.844 -20.453 -1.109 QT
-20.453 -2.328 -20.234 -3.398 QT
-20.016 -4.468 -19.352 -5.218 QT
-18.688 -5.968 -17.5 -5.968 QT
-16.578 -5.968 -15.992 -5.515 QT
-15.406 -5.062 -15.094 -4.351 QT
-14.781 -3.64 -14.672 -2.82 QT
-14.563 -1.999 -14.563 -1.109 QT
-14.563 0.094 -14.781 1.149 QT
-15 2.204 -15.649 2.938 QT
-16.297 3.672 -17.5 3.672 QT
cp
-17.5 3.297 M
-16.719 3.297 -16.336 2.501 QT
-15.953 1.704 -15.867 0.735 QT
-15.781 -0.234 -15.781 -1.328 QT
-15.781 -2.39 -15.867 -3.273 QT
-15.953 -4.156 -16.336 -4.882 QT
-16.719 -5.609 -17.5 -5.609 QT
-18.297 -5.609 -18.68 -4.882 QT
-19.063 -4.156 -19.149 -3.273 QT
-19.234 -2.39 -19.234 -1.328 QT
-19.234 -0.546 -19.195 0.141 QT
-19.156 0.829 -18.992 1.563 QT
-18.828 2.297 -18.461 2.797 QT
-18.094 3.297 -17.5 3.297 QT
cp}def
f-1358722661
f
GR
GS
[1 0 0 1 68.2 297.77777] CT
0.149 GC
N
/f103834922{-10.5 3.672 M
-12.219 3.672 -12.836 2.258 QT
-13.453 0.844 -13.453 -1.109 QT
-13.453 -2.328 -13.234 -3.398 QT
-13.016 -4.468 -12.352 -5.218 QT
-11.688 -5.968 -10.5 -5.968 QT
-9.578 -5.968 -8.992 -5.515 QT
-8.406 -5.062 -8.094 -4.351 QT
-7.781 -3.64 -7.672 -2.82 QT
-7.563 -1.999 -7.563 -1.109 QT
-7.563 0.094 -7.781 1.149 QT
-8 2.204 -8.648 2.938 QT
-9.297 3.672 -10.5 3.672 QT
cp
-10.5 3.297 M
-9.719 3.297 -9.336 2.501 QT
-8.953 1.704 -8.867 0.735 QT
-8.781 -0.234 -8.781 -1.328 QT
-8.781 -2.39 -8.867 -3.273 QT
-8.953 -4.156 -9.336 -4.882 QT
-9.719 -5.609 -10.5 -5.609 QT
-11.297 -5.609 -11.68 -4.882 QT
-12.063 -4.156 -12.148 -3.273 QT
-12.234 -2.39 -12.234 -1.328 QT
-12.234 -0.546 -12.195 0.141 QT
-12.156 0.829 -11.992 1.563 QT
-11.828 2.297 -11.461 2.797 QT
-11.094 3.297 -10.5 3.297 QT
cp}def
f103834922
f
GR
GS
[1 0 0 1 68.2 297.77777] CT
0.149 GC
N
/f-963146179{-6.609 1.047 M
-6.609 0.563 L
-2.281 -5.89 L
-2.234 -5.968 -2.141 -5.968 QT
-1.938 -5.968 L
-1.781 -5.968 -1.781 -5.812 QT
-1.781 0.563 L
-0.406 0.563 L
-0.406 1.047 L
-1.781 1.047 L
-1.781 2.422 L
-1.781 2.704 -1.367 2.782 QT
-0.953 2.86 -0.422 2.86 QT
-0.422 3.36 L
-4.266 3.36 L
-4.266 2.86 L
-3.734 2.86 -3.32 2.782 QT
-2.906 2.704 -2.906 2.422 QT
-2.906 1.047 L
-6.609 1.047 L
cp
-6.141 0.563 M
-2.828 0.563 L
-2.828 -4.406 L
-6.141 0.563 L
cp}def
f-963146179
f
GR
GS
[1 0 0 1 68.2 259.66666] CT
0.149 GC
N
f-2135406350
f
GR
GS
[1 0 0 1 68.2 259.66666] CT
0.149 GC
N
f-683107836
f
GR
GS
[1 0 0 1 68.2 259.66666] CT
0.149 GC
N
f-1358722661
f
GR
GS
[1 0 0 1 68.2 259.66666] CT
0.149 GC
N
f103834922
f
GR
GS
[1 0 0 1 68.2 259.66666] CT
0.149 GC
N
/f1675996337{-3.5 3.672 M
-4.375 3.672 -4.953 3.212 QT
-5.531 2.751 -5.852 2.016 QT
-6.172 1.282 -6.289 0.469 QT
-6.406 -0.343 -6.406 -1.171 QT
-6.406 -2.281 -5.977 -3.39 QT
-5.547 -4.499 -4.711 -5.234 QT
-3.875 -5.968 -2.734 -5.968 QT
-2.25 -5.968 -1.836 -5.788 QT
-1.422 -5.609 -1.188 -5.257 QT
-0.953 -4.906 -0.953 -4.406 QT
-0.953 -4.109 -1.148 -3.913 QT
-1.344 -3.718 -1.625 -3.718 QT
-1.906 -3.718 -2.102 -3.921 QT
-2.297 -4.124 -2.297 -4.406 QT
-2.297 -4.671 -2.102 -4.867 QT
-1.906 -5.062 -1.625 -5.062 QT
-1.547 -5.062 L
-1.734 -5.328 -2.055 -5.445 QT
-2.375 -5.562 -2.734 -5.562 QT
-3.156 -5.562 -3.516 -5.374 QT
-3.875 -5.187 -4.156 -4.874 QT
-4.438 -4.562 -4.633 -4.187 QT
-4.828 -3.812 -4.93 -3.32 QT
-5.031 -2.828 -5.063 -2.406 QT
-5.094 -1.984 -5.094 -1.343 QT
-4.844 -1.921 -4.391 -2.288 QT
-3.938 -2.656 -3.375 -2.656 QT
-2.75 -2.656 -2.242 -2.398 QT
-1.734 -2.14 -1.359 -1.695 QT
-0.984 -1.249 -0.789 -0.671 QT
-0.594 -0.093 -0.594 0.485 QT
-0.594 1.313 -0.961 2.055 QT
-1.328 2.797 -1.992 3.235 QT
-2.656 3.672 -3.5 3.672 QT
cp
-3.5 3.219 M
-2.953 3.219 -2.625 2.977 QT
-2.297 2.735 -2.148 2.329 QT
-2 1.922 -1.961 1.508 QT
-1.922 1.094 -1.922 0.485 QT
-1.922 -0.312 -2 -0.867 QT
-2.078 -1.421 -2.406 -1.851 QT
-2.734 -2.281 -3.438 -2.281 QT
-4 -2.281 -4.367 -1.898 QT
-4.734 -1.515 -4.898 -0.929 QT
-5.063 -0.343 -5.063 0.188 QT
-5.063 0.376 -5.047 0.469 QT
-5.047 0.501 -5.055 0.508 QT
-5.063 0.516 -5.063 0.547 QT
-5.063 1.141 -4.938 1.758 QT
-4.813 2.376 -4.469 2.797 QT
-4.125 3.219 -3.5 3.219 QT
cp}def
f1675996337
f
GR
GS
[1 0 0 1 68.2 221.55554] CT
0.149 GC
N
f-2135406350
f
GR
GS
[1 0 0 1 68.2 221.55554] CT
0.149 GC
N
f-683107836
f
GR
GS
[1 0 0 1 68.2 221.55554] CT
0.149 GC
N
f-1358722661
f
GR
GS
[1 0 0 1 68.2 221.55554] CT
0.149 GC
N
f103834922
f
GR
GS
[1 0 0 1 68.2 221.55554] CT
0.149 GC
N
/f915959969{-6.406 1.235 M
-6.406 0.391 -5.852 -0.257 QT
-5.297 -0.906 -4.438 -1.328 QT
-4.953 -1.671 L
-5.438 -1.984 -5.734 -2.507 QT
-6.031 -3.031 -6.031 -3.593 QT
-6.031 -4.265 -5.68 -4.804 QT
-5.328 -5.343 -4.742 -5.656 QT
-4.156 -5.968 -3.5 -5.968 QT
-2.875 -5.968 -2.297 -5.71 QT
-1.719 -5.453 -1.352 -4.984 QT
-0.984 -4.515 -0.984 -3.859 QT
-0.984 -3.39 -1.203 -2.992 QT
-1.422 -2.593 -1.805 -2.273 QT
-2.188 -1.953 -2.625 -1.718 QT
-1.828 -1.203 L
-1.281 -0.843 -0.938 -0.257 QT
-0.594 0.329 -0.594 0.985 QT
-0.594 1.735 -1.008 2.36 QT
-1.422 2.985 -2.086 3.329 QT
-2.75 3.672 -3.5 3.672 QT
-4.219 3.672 -4.898 3.376 QT
-5.578 3.079 -5.992 2.524 QT
-6.406 1.969 -6.406 1.235 QT
cp
-5.656 1.235 M
-5.656 1.782 -5.352 2.243 QT
-5.047 2.704 -4.547 2.962 QT
-4.047 3.219 -3.5 3.219 QT
-2.688 3.219 -2.023 2.743 QT
-1.359 2.266 -1.359 1.485 QT
-1.359 1.219 -1.469 0.954 QT
-1.578 0.688 -1.766 0.477 QT
-1.953 0.266 -2.188 0.126 QT
-4.063 -1.093 L
-4.5 -0.859 -4.867 -0.499 QT
-5.234 -0.14 -5.445 0.297 QT
-5.656 0.735 -5.656 1.235 QT
cp
-4.688 -3.046 M
-3 -1.953 L
-2.406 -2.281 -2.031 -2.773 QT
-1.656 -3.265 -1.656 -3.859 QT
-1.656 -4.343 -1.922 -4.734 QT
-2.188 -5.124 -2.609 -5.343 QT
-3.031 -5.562 -3.516 -5.562 QT
-3.938 -5.562 -4.367 -5.398 QT
-4.797 -5.234 -5.078 -4.906 QT
-5.359 -4.578 -5.359 -4.14 QT
-5.359 -3.484 -4.688 -3.046 QT
cp}def
f915959969
f
GR
GS
[1 0 0 1 68.2 183.44444] CT
0.149 GC
N
/f-231656160{-21.389 3.672 M
-23.108 3.672 -23.725 2.258 QT
-24.342 0.844 -24.342 -1.109 QT
-24.342 -2.328 -24.123 -3.398 QT
-23.905 -4.468 -23.241 -5.218 QT
-22.576 -5.968 -21.389 -5.968 QT
-20.467 -5.968 -19.881 -5.515 QT
-19.295 -5.062 -18.983 -4.351 QT
-18.67 -3.64 -18.561 -2.82 QT
-18.451 -1.999 -18.451 -1.109 QT
-18.451 0.094 -18.67 1.149 QT
-18.889 2.204 -19.537 2.938 QT
-20.186 3.672 -21.389 3.672 QT
cp
-21.389 3.297 M
-20.608 3.297 -20.225 2.501 QT
-19.842 1.704 -19.756 0.735 QT
-19.67 -0.234 -19.67 -1.328 QT
-19.67 -2.39 -19.756 -3.273 QT
-19.842 -4.156 -20.225 -4.882 QT
-20.608 -5.609 -21.389 -5.609 QT
-22.186 -5.609 -22.569 -4.882 QT
-22.951 -4.156 -23.037 -3.273 QT
-23.123 -2.39 -23.123 -1.328 QT
-23.123 -0.546 -23.084 0.141 QT
-23.045 0.829 -22.881 1.563 QT
-22.717 2.297 -22.35 2.797 QT
-21.983 3.297 -21.389 3.297 QT
cp}def
f-231656160
f
GR
GS
[1 0 0 1 68.2 183.44444] CT
0.149 GC
N
/f2029640664{-16.717 2.594 M
-16.717 2.266 -16.483 2.047 QT
-16.248 1.829 -15.936 1.829 QT
-15.748 1.829 -15.561 1.93 QT
-15.373 2.032 -15.272 2.212 QT
-15.17 2.391 -15.17 2.594 QT
-15.17 2.891 -15.397 3.126 QT
-15.623 3.36 -15.936 3.36 QT
-16.248 3.36 -16.483 3.126 QT
-16.717 2.891 -16.717 2.594 QT
cp}def
f2029640664
f
GR
GS
[1 0 0 1 68.2 183.44444] CT
0.149 GC
N
f103834922
f
GR
GS
[1 0 0 1 68.2 183.44444] CT
0.149 GC
N
/f403651406{-5.703 3.36 M
-5.703 2.86 L
-3.953 2.86 -3.953 2.422 QT
-3.953 -4.921 L
-4.672 -4.578 -5.781 -4.578 QT
-5.781 -5.062 L
-4.063 -5.062 -3.188 -5.968 QT
-3 -5.968 L
-2.953 -5.968 -2.906 -5.929 QT
-2.859 -5.89 -2.859 -5.843 QT
-2.859 2.422 L
-2.859 2.86 -1.109 2.86 QT
-1.109 3.36 L
-5.703 3.36 L
cp}def
f403651406
f
GR
GS
[1 0 0 1 68.2 145.33333] CT
0.149 GC
N
f-2135406350
f
GR
GS
[1 0 0 1 68.2 145.33333] CT
0.149 GC
N
f-683107836
f
GR
GS
[1 0 0 1 68.2 145.33333] CT
0.149 GC
N
f-1358722661
f
GR
GS
[1 0 0 1 68.2 145.33333] CT
0.149 GC
N
/f1296696630{-12.703 3.36 M
-12.703 2.86 L
-10.953 2.86 -10.953 2.422 QT
-10.953 -4.921 L
-11.672 -4.578 -12.781 -4.578 QT
-12.781 -5.062 L
-11.063 -5.062 -10.188 -5.968 QT
-10 -5.968 L
-9.953 -5.968 -9.906 -5.929 QT
-9.859 -5.89 -9.859 -5.843 QT
-9.859 2.422 L
-9.859 2.86 -8.109 2.86 QT
-8.109 3.36 L
-12.703 3.36 L
cp}def
f1296696630
f
GR
GS
[1 0 0 1 68.2 145.33333] CT
0.149 GC
N
/f-1268078367{-6.297 3.36 M
-6.297 2.985 L
-6.297 2.954 -6.281 2.907 QT
-4.094 0.501 L
-3.609 -0.031 -3.305 -0.39 QT
-3 -0.749 -2.695 -1.226 QT
-2.391 -1.703 -2.219 -2.187 QT
-2.047 -2.671 -2.047 -3.218 QT
-2.047 -3.796 -2.258 -4.32 QT
-2.469 -4.843 -2.891 -5.156 QT
-3.313 -5.468 -3.906 -5.468 QT
-4.516 -5.468 -5 -5.101 QT
-5.484 -4.734 -5.688 -4.156 QT
-5.625 -4.171 -5.531 -4.171 QT
-5.219 -4.171 -4.992 -3.96 QT
-4.766 -3.749 -4.766 -3.421 QT
-4.766 -3.093 -4.992 -2.874 QT
-5.219 -2.656 -5.531 -2.656 QT
-5.859 -2.656 -6.078 -2.882 QT
-6.297 -3.109 -6.297 -3.421 QT
-6.297 -3.937 -6.102 -4.398 QT
-5.906 -4.859 -5.531 -5.218 QT
-5.156 -5.578 -4.688 -5.773 QT
-4.219 -5.968 -3.703 -5.968 QT
-2.891 -5.968 -2.203 -5.624 QT
-1.516 -5.281 -1.109 -4.663 QT
-0.703 -4.046 -0.703 -3.218 QT
-0.703 -2.609 -0.977 -2.062 QT
-1.25 -1.515 -1.664 -1.07 QT
-2.078 -0.624 -2.727 -0.054 QT
-3.375 0.516 -3.578 0.704 QT
-5.172 2.219 L
-3.828 2.219 L
-2.828 2.219 -2.164 2.204 QT
-1.5 2.188 -1.453 2.157 QT
-1.297 1.985 -1.125 0.86 QT
-0.703 0.86 L
-1.109 3.36 L
-6.297 3.36 L
cp}def
f-1268078367
f
GR
GS
[1 0 0 1 68.2 107.22221] CT
0.149 GC
N
f-2135406350
f
GR
GS
[1 0 0 1 68.2 107.22221] CT
0.149 GC
N
f-683107836
f
GR
GS
[1 0 0 1 68.2 107.22221] CT
0.149 GC
N
f-1358722661
f
GR
GS
[1 0 0 1 68.2 107.22221] CT
0.149 GC
N
f1296696630
f
GR
GS
[1 0 0 1 68.2 107.22221] CT
0.149 GC
N
f-963146179
f
GR
GS
[1 0 0 1 68.2 69.1111] CT
0.149 GC
N
f-2135406350
f
GR
GS
[1 0 0 1 68.2 69.1111] CT
0.149 GC
N
f-683107836
f
GR
GS
[1 0 0 1 68.2 69.1111] CT
0.149 GC
N
f-1358722661
f
GR
GS
[1 0 0 1 68.2 69.1111] CT
0.149 GC
N
f1296696630
f
GR
GS
[1 0 0 1 68.2 69.1111] CT
0.149 GC
N
f1675996337
f
GR
GS
[1 0 0 1 68.2 31.00002] CT
0.149 GC
N
f-2135406350
f
GR
GS
[1 0 0 1 68.2 31.00002] CT
0.149 GC
N
f-683107836
f
GR
GS
[1 0 0 1 68.2 31.00002] CT
0.149 GC
N
f-1358722661
f
GR
GS
[1 0 0 1 68.2 31.00002] CT
0.149 GC
N
f1296696630
f
GR
GS
[1 0 0 1 68.2 31.00002] CT
0.149 GC
N
f915959969
f
GR
GS
[0 -1 1 0 33.31102 202.49985] CT
0.149 GC
N
/f404144488{-112.231 -5.544 M
-112.231 -6.075 L
-110.684 -6.075 -110.684 -6.95 QT
-110.684 -14.794 L
-110.684 -15.263 -112.231 -15.263 QT
-112.231 -15.794 L
-109.403 -15.794 L
-109.216 -15.794 -109.153 -15.622 QT
-105.887 -7.138 L
-102.622 -15.622 L
-102.559 -15.794 -102.387 -15.794 QT
-99.544 -15.794 L
-99.544 -15.263 L
-101.091 -15.263 -101.091 -14.794 QT
-101.091 -6.544 L
-101.091 -6.075 -99.544 -6.075 QT
-99.544 -5.544 L
-103.919 -5.544 L
-103.919 -6.075 L
-102.372 -6.075 -102.372 -6.544 QT
-102.372 -15.278 L
-106.059 -5.716 L
-106.122 -5.544 -106.309 -5.544 QT
-106.497 -5.544 -106.559 -5.716 QT
-110.216 -15.153 L
-110.216 -6.95 L
-110.216 -6.075 -108.669 -6.075 QT
-108.669 -5.544 L
-112.231 -5.544 L
cp}def
f404144488
f
GR
GS
[0 -1 1 0 33.31102 202.49985] CT
0.149 GC
N
/f-1021838465{-98.052 -7.013 M
-98.052 -7.903 -97.349 -8.466 QT
-96.646 -9.028 -95.654 -9.263 QT
-94.661 -9.497 -93.786 -9.497 QT
-93.786 -10.107 L
-93.786 -10.544 -93.974 -10.95 QT
-94.161 -11.357 -94.521 -11.614 QT
-94.88 -11.872 -95.318 -11.872 QT
-96.302 -11.872 -96.833 -11.419 QT
-96.536 -11.419 -96.357 -11.208 QT
-96.177 -10.997 -96.177 -10.7 QT
-96.177 -10.403 -96.388 -10.192 QT
-96.599 -9.982 -96.88 -9.982 QT
-97.193 -9.982 -97.404 -10.192 QT
-97.615 -10.403 -97.615 -10.7 QT
-97.615 -11.497 -96.896 -11.88 QT
-96.177 -12.263 -95.318 -12.263 QT
-94.708 -12.263 -94.091 -12.005 QT
-93.474 -11.747 -93.083 -11.263 QT
-92.693 -10.778 -92.693 -10.138 QT
-92.693 -6.763 L
-92.693 -6.466 -92.568 -6.224 QT
-92.443 -5.982 -92.177 -5.982 QT
-91.927 -5.982 -91.81 -6.232 QT
-91.693 -6.482 -91.693 -6.763 QT
-91.693 -7.716 L
-91.255 -7.716 L
-91.255 -6.763 L
-91.255 -6.419 -91.427 -6.114 QT
-91.599 -5.81 -91.896 -5.63 QT
-92.193 -5.45 -92.536 -5.45 QT
-92.974 -5.45 -93.294 -5.794 QT
-93.615 -6.138 -93.646 -6.607 QT
-93.927 -6.044 -94.466 -5.708 QT
-95.005 -5.372 -95.63 -5.372 QT
-96.193 -5.372 -96.747 -5.544 QT
-97.302 -5.716 -97.677 -6.075 QT
-98.052 -6.435 -98.052 -7.013 QT
cp
-96.833 -7.013 M
-96.833 -6.482 -96.443 -6.13 QT
-96.052 -5.778 -95.521 -5.778 QT
-95.036 -5.778 -94.646 -6.013 QT
-94.255 -6.247 -94.021 -6.669 QT
-93.786 -7.091 -93.786 -7.544 QT
-93.786 -9.107 L
-94.458 -9.107 -95.177 -8.888 QT
-95.896 -8.669 -96.365 -8.192 QT
-96.833 -7.716 -96.833 -7.013 QT
cp}def
f-1021838465
f
GR
GS
[0 -1 1 0 33.31102 202.49985] CT
0.149 GC
N
/f626111665{-90.758 -5.544 M
-90.758 -6.075 L
-90.196 -6.075 -89.688 -6.294 QT
-89.18 -6.513 -88.836 -6.95 QT
-87.461 -8.7 L
-89.243 -10.997 L
-89.508 -11.325 -89.813 -11.403 QT
-90.118 -11.482 -90.696 -11.482 QT
-90.696 -12.013 L
-87.571 -12.013 L
-87.571 -11.482 L
-87.774 -11.482 -87.946 -11.396 QT
-88.118 -11.31 -88.118 -11.138 QT
-88.118 -11.075 -88.071 -10.997 QT
-86.868 -9.435 L
-85.961 -10.591 L
-85.79 -10.825 -85.79 -11.044 QT
-85.79 -11.216 -85.907 -11.349 QT
-86.024 -11.482 -86.227 -11.482 QT
-86.227 -12.013 L
-83.461 -12.013 L
-83.461 -11.482 L
-84.04 -11.482 -84.547 -11.263 QT
-85.055 -11.044 -85.415 -10.591 QT
-86.602 -9.075 L
-84.68 -6.544 L
-84.383 -6.216 -84.079 -6.146 QT
-83.774 -6.075 -83.211 -6.075 QT
-83.211 -5.544 L
-86.321 -5.544 L
-86.321 -6.075 L
-86.133 -6.075 -85.969 -6.161 QT
-85.805 -6.247 -85.805 -6.419 QT
-85.805 -6.482 -85.852 -6.544 QT
-87.196 -8.341 L
-88.274 -6.95 L
-88.446 -6.763 -88.446 -6.513 QT
-88.446 -6.341 -88.321 -6.208 QT
-88.196 -6.075 -88.024 -6.075 QT
-88.024 -5.544 L
-90.758 -5.544 L
cp}def
f626111665
f
GR
GS
[0 -1 1 0 33.31102 202.49985] CT
0.149 GC
N
/f-899855902{-82.349 -5.544 M
-82.349 -6.075 L
-81.849 -6.075 -81.513 -6.153 QT
-81.177 -6.232 -81.177 -6.544 QT
-81.177 -10.638 L
-81.177 -11.216 -81.404 -11.349 QT
-81.63 -11.482 -82.287 -11.482 QT
-82.287 -12.013 L
-80.13 -12.169 L
-80.13 -6.544 L
-80.13 -6.232 -79.841 -6.153 QT
-79.552 -6.075 -79.084 -6.075 QT
-79.084 -5.544 L
-82.349 -5.544 L
cp
-81.724 -14.747 M
-81.724 -15.075 -81.474 -15.325 QT
-81.224 -15.575 -80.896 -15.575 QT
-80.693 -15.575 -80.49 -15.466 QT
-80.287 -15.357 -80.177 -15.161 QT
-80.068 -14.966 -80.068 -14.747 QT
-80.068 -14.435 -80.318 -14.185 QT
-80.568 -13.935 -80.896 -13.935 QT
-81.224 -13.935 -81.474 -14.185 QT
-81.724 -14.435 -81.724 -14.747 QT
cp}def
f-899855902
f
GR
GS
[0 -1 1 0 33.31102 202.49985] CT
0.149 GC
N
/f1025116470{-78.087 -5.544 M
-78.087 -6.075 L
-77.587 -6.075 -77.251 -6.153 QT
-76.915 -6.232 -76.915 -6.544 QT
-76.915 -10.638 L
-76.915 -11.044 -77.04 -11.224 QT
-77.165 -11.403 -77.392 -11.442 QT
-77.618 -11.482 -78.087 -11.482 QT
-78.087 -12.013 L
-75.915 -12.169 L
-75.915 -10.7 L
-75.618 -11.357 -75.025 -11.763 QT
-74.431 -12.169 -73.743 -12.169 QT
-72.009 -12.169 -71.712 -10.763 QT
-71.415 -11.403 -70.837 -11.786 QT
-70.259 -12.169 -69.571 -12.169 QT
-68.884 -12.169 -68.423 -11.95 QT
-67.962 -11.732 -67.728 -11.278 QT
-67.493 -10.825 -67.493 -10.153 QT
-67.493 -6.544 L
-67.493 -6.232 -67.157 -6.153 QT
-66.821 -6.075 -66.321 -6.075 QT
-66.321 -5.544 L
-69.743 -5.544 L
-69.743 -6.075 L
-69.243 -6.075 -68.907 -6.153 QT
-68.571 -6.232 -68.571 -6.544 QT
-68.571 -10.107 L
-68.571 -10.857 -68.79 -11.317 QT
-69.009 -11.778 -69.665 -11.778 QT
-70.525 -11.778 -71.087 -11.083 QT
-71.65 -10.388 -71.65 -9.513 QT
-71.65 -6.544 L
-71.65 -6.232 -71.321 -6.153 QT
-70.993 -6.075 -70.478 -6.075 QT
-70.478 -5.544 L
-73.915 -5.544 L
-73.915 -6.075 L
-73.4 -6.075 -73.071 -6.153 QT
-72.743 -6.232 -72.743 -6.544 QT
-72.743 -10.107 L
-72.743 -10.841 -72.954 -11.31 QT
-73.165 -11.778 -73.837 -11.778 QT
-74.696 -11.778 -75.259 -11.083 QT
-75.821 -10.388 -75.821 -9.513 QT
-75.821 -6.544 L
-75.821 -6.232 -75.493 -6.153 QT
-75.165 -6.075 -74.665 -6.075 QT
-74.665 -5.544 L
-78.087 -5.544 L
cp}def
f1025116470
f
GR
GS
[0 -1 1 0 33.31102 202.49985] CT
0.149 GC
N
/f948105727{-64.51 -7.325 M
-64.51 -10.638 L
-64.51 -11.044 -64.635 -11.224 QT
-64.76 -11.403 -64.986 -11.442 QT
-65.213 -11.482 -65.681 -11.482 QT
-65.681 -12.013 L
-63.416 -12.169 L
-63.416 -7.325 L
-63.416 -6.747 -63.33 -6.419 QT
-63.244 -6.091 -62.971 -5.935 QT
-62.697 -5.778 -62.103 -5.778 QT
-61.291 -5.778 -60.814 -6.45 QT
-60.338 -7.122 -60.338 -7.982 QT
-60.338 -10.638 L
-60.338 -11.044 -60.463 -11.224 QT
-60.588 -11.403 -60.814 -11.442 QT
-61.041 -11.482 -61.51 -11.482 QT
-61.51 -12.013 L
-59.244 -12.169 L
-59.244 -6.903 L
-59.244 -6.513 -59.127 -6.333 QT
-59.01 -6.153 -58.783 -6.114 QT
-58.556 -6.075 -58.072 -6.075 QT
-58.072 -5.544 L
-60.291 -5.372 L
-60.291 -6.638 L
-60.572 -6.075 -61.072 -5.724 QT
-61.572 -5.372 -62.166 -5.372 QT
-63.244 -5.372 -63.877 -5.833 QT
-64.51 -6.294 -64.51 -7.325 QT
cp}def
f948105727
f
GR
GS
[0 -1 1 0 33.31102 202.49985] CT
0.149 GC
N
/f-1295443834{-57.126 -5.544 M
-57.126 -6.075 L
-56.626 -6.075 -56.29 -6.153 QT
-55.954 -6.232 -55.954 -6.544 QT
-55.954 -10.638 L
-55.954 -11.044 -56.079 -11.224 QT
-56.204 -11.403 -56.431 -11.442 QT
-56.657 -11.482 -57.126 -11.482 QT
-57.126 -12.013 L
-54.954 -12.169 L
-54.954 -10.7 L
-54.657 -11.357 -54.063 -11.763 QT
-53.47 -12.169 -52.782 -12.169 QT
-51.048 -12.169 -50.751 -10.763 QT
-50.454 -11.403 -49.876 -11.786 QT
-49.298 -12.169 -48.61 -12.169 QT
-47.923 -12.169 -47.462 -11.95 QT
-47.001 -11.732 -46.766 -11.278 QT
-46.532 -10.825 -46.532 -10.153 QT
-46.532 -6.544 L
-46.532 -6.232 -46.196 -6.153 QT
-45.86 -6.075 -45.36 -6.075 QT
-45.36 -5.544 L
-48.782 -5.544 L
-48.782 -6.075 L
-48.282 -6.075 -47.946 -6.153 QT
-47.61 -6.232 -47.61 -6.544 QT
-47.61 -10.107 L
-47.61 -10.857 -47.829 -11.317 QT
-48.048 -11.778 -48.704 -11.778 QT
-49.563 -11.778 -50.126 -11.083 QT
-50.688 -10.388 -50.688 -9.513 QT
-50.688 -6.544 L
-50.688 -6.232 -50.36 -6.153 QT
-50.032 -6.075 -49.516 -6.075 QT
-49.516 -5.544 L
-52.954 -5.544 L
-52.954 -6.075 L
-52.438 -6.075 -52.11 -6.153 QT
-51.782 -6.232 -51.782 -6.544 QT
-51.782 -10.107 L
-51.782 -10.841 -51.993 -11.31 QT
-52.204 -11.778 -52.876 -11.778 QT
-53.735 -11.778 -54.298 -11.083 QT
-54.86 -10.388 -54.86 -9.513 QT
-54.86 -6.544 L
-54.86 -6.232 -54.532 -6.153 QT
-54.204 -6.075 -53.704 -6.075 QT
-53.704 -5.544 L
-57.126 -5.544 L
cp}def
f-1295443834
f
GR
GS
[0 -1 1 0 33.31102 202.49985] CT
0.149 GC
N
/f-1331537432{-39.144 -5.544 M
-39.144 -6.075 L
-38.644 -6.075 -38.308 -6.153 QT
-37.972 -6.232 -37.972 -6.544 QT
-37.972 -10.638 L
-37.972 -11.216 -38.198 -11.349 QT
-38.425 -11.482 -39.081 -11.482 QT
-39.081 -12.013 L
-36.925 -12.169 L
-36.925 -6.544 L
-36.925 -6.232 -36.636 -6.153 QT
-36.347 -6.075 -35.878 -6.075 QT
-35.878 -5.544 L
-39.144 -5.544 L
cp
-38.519 -14.747 M
-38.519 -15.075 -38.269 -15.325 QT
-38.019 -15.575 -37.69 -15.575 QT
-37.487 -15.575 -37.284 -15.466 QT
-37.081 -15.357 -36.972 -15.161 QT
-36.862 -14.966 -36.862 -14.747 QT
-36.862 -14.435 -37.112 -14.185 QT
-37.362 -13.935 -37.69 -13.935 QT
-38.019 -13.935 -38.269 -14.185 QT
-38.519 -14.435 -38.519 -14.747 QT
cp}def
f-1331537432
f
GR
GS
[0 -1 1 0 33.31102 202.49985] CT
0.149 GC
N
/f-786213525{-34.881 -5.544 M
-34.881 -6.075 L
-34.381 -6.075 -34.045 -6.153 QT
-33.71 -6.232 -33.71 -6.544 QT
-33.71 -10.638 L
-33.71 -11.044 -33.835 -11.224 QT
-33.96 -11.403 -34.186 -11.442 QT
-34.413 -11.482 -34.881 -11.482 QT
-34.881 -12.013 L
-32.71 -12.169 L
-32.71 -10.7 L
-32.413 -11.357 -31.819 -11.763 QT
-31.225 -12.169 -30.538 -12.169 QT
-29.491 -12.169 -28.967 -11.669 QT
-28.444 -11.169 -28.444 -10.153 QT
-28.444 -6.544 L
-28.444 -6.232 -28.116 -6.153 QT
-27.788 -6.075 -27.272 -6.075 QT
-27.272 -5.544 L
-30.71 -5.544 L
-30.71 -6.075 L
-30.194 -6.075 -29.866 -6.153 QT
-29.538 -6.232 -29.538 -6.544 QT
-29.538 -10.107 L
-29.538 -10.841 -29.749 -11.31 QT
-29.96 -11.778 -30.631 -11.778 QT
-31.491 -11.778 -32.053 -11.083 QT
-32.616 -10.388 -32.616 -9.513 QT
-32.616 -6.544 L
-32.616 -6.232 -32.288 -6.153 QT
-31.96 -6.075 -31.46 -6.075 QT
-31.46 -5.544 L
-34.881 -5.544 L
cp}def
f-786213525
f
GR
GS
[0 -1 1 0 33.31102 202.49985] CT
0.149 GC
N
/f1256949241{-25.675 -7.341 M
-25.675 -11.482 L
-26.925 -11.482 L
-26.925 -11.872 L
-25.941 -11.872 -25.48 -12.786 QT
-25.019 -13.7 -25.019 -14.778 QT
-24.582 -14.778 L
-24.582 -12.013 L
-22.472 -12.013 L
-22.472 -11.482 L
-24.582 -11.482 L
-24.582 -7.372 L
-24.582 -6.747 -24.371 -6.278 QT
-24.16 -5.81 -23.629 -5.81 QT
-23.113 -5.81 -22.886 -6.31 QT
-22.66 -6.81 -22.66 -7.372 QT
-22.66 -8.263 L
-22.222 -8.263 L
-22.222 -7.341 L
-22.222 -6.872 -22.394 -6.419 QT
-22.566 -5.966 -22.902 -5.669 QT
-23.238 -5.372 -23.722 -5.372 QT
-24.629 -5.372 -25.152 -5.911 QT
-25.675 -6.45 -25.675 -7.341 QT
cp}def
f1256949241
f
GR
GS
[0 -1 1 0 33.31102 202.49985] CT
0.149 GC
N
/f1663838554{-17.483 -5.372 M
-18.405 -5.372 -19.163 -5.857 QT
-19.921 -6.341 -20.358 -7.138 QT
-20.796 -7.935 -20.796 -8.825 QT
-20.796 -9.716 -20.398 -10.505 QT
-19.999 -11.294 -19.288 -11.778 QT
-18.577 -12.263 -17.702 -12.263 QT
-16.999 -12.263 -16.491 -12.036 QT
-15.983 -11.81 -15.655 -11.396 QT
-15.327 -10.982 -15.163 -10.427 QT
-14.999 -9.872 -14.999 -9.2 QT
-14.999 -9.013 -15.14 -9.013 QT
-19.483 -9.013 L
-19.483 -8.841 L
-19.483 -7.607 -18.983 -6.708 QT
-18.483 -5.81 -17.343 -5.81 QT
-16.89 -5.81 -16.499 -6.021 QT
-16.108 -6.232 -15.819 -6.591 QT
-15.53 -6.95 -15.421 -7.372 QT
-15.405 -7.419 -15.366 -7.466 QT
-15.327 -7.513 -15.28 -7.513 QT
-15.14 -7.513 L
-14.999 -7.513 -14.999 -7.31 QT
-15.202 -6.466 -15.905 -5.919 QT
-16.608 -5.372 -17.483 -5.372 QT
cp
-19.468 -9.388 M
-16.062 -9.388 L
-16.062 -9.95 -16.218 -10.528 QT
-16.374 -11.107 -16.741 -11.489 QT
-17.108 -11.872 -17.702 -11.872 QT
-18.546 -11.872 -19.007 -11.075 QT
-19.468 -10.278 -19.468 -9.388 QT
cp}def
f1663838554
f
GR
GS
[0 -1 1 0 33.31102 202.49985] CT
0.149 GC
N
/f698609612{-13.983 -5.544 M
-13.983 -6.075 L
-13.467 -6.075 -13.139 -6.153 QT
-12.811 -6.232 -12.811 -6.544 QT
-12.811 -10.638 L
-12.811 -11.044 -12.936 -11.224 QT
-13.061 -11.403 -13.287 -11.442 QT
-13.514 -11.482 -13.983 -11.482 QT
-13.983 -12.013 L
-11.842 -12.169 L
-11.842 -10.7 L
-11.592 -11.357 -11.147 -11.763 QT
-10.701 -12.169 -10.061 -12.169 QT
-9.623 -12.169 -9.272 -11.903 QT
-8.92 -11.638 -8.92 -11.216 QT
-8.92 -10.935 -9.116 -10.739 QT
-9.311 -10.544 -9.592 -10.544 QT
-9.873 -10.544 -10.069 -10.739 QT
-10.264 -10.935 -10.264 -11.216 QT
-10.264 -11.622 -9.983 -11.778 QT
-10.061 -11.778 L
-10.67 -11.778 -11.053 -11.341 QT
-11.436 -10.903 -11.6 -10.255 QT
-11.764 -9.607 -11.764 -9.013 QT
-11.764 -6.544 L
-11.764 -6.075 -10.311 -6.075 QT
-10.311 -5.544 L
-13.983 -5.544 L
cp}def
f698609612
f
GR
GS
[0 -1 1 0 33.31102 202.49985] CT
0.149 GC
N
/f169032794{-7.951 -2.638 M
-7.951 -3.153 L
-7.435 -3.153 -7.107 -3.239 QT
-6.779 -3.325 -6.779 -3.638 QT
-6.779 -10.872 L
-6.779 -11.278 -7.076 -11.38 QT
-7.373 -11.482 -7.951 -11.482 QT
-7.951 -12.013 L
-5.732 -12.169 L
-5.732 -11.247 L
-5.326 -11.7 -4.779 -11.935 QT
-4.232 -12.169 -3.623 -12.169 QT
-2.732 -12.169 -2.021 -11.692 QT
-1.31 -11.216 -0.912 -10.435 QT
-0.514 -9.653 -0.514 -8.778 QT
-0.514 -7.872 -0.959 -7.091 QT
-1.404 -6.31 -2.17 -5.841 QT
-2.935 -5.372 -3.842 -5.372 QT
-4.935 -5.372 -5.685 -6.263 QT
-5.685 -3.638 L
-5.685 -3.325 -5.357 -3.239 QT
-5.029 -3.153 -4.514 -3.153 QT
-4.514 -2.638 L
-7.951 -2.638 L
cp
-5.685 -6.997 M
-5.42 -6.466 -4.951 -6.122 QT
-4.482 -5.778 -3.935 -5.778 QT
-3.42 -5.778 -3.014 -6.052 QT
-2.607 -6.325 -2.342 -6.794 QT
-2.076 -7.263 -1.943 -7.778 QT
-1.81 -8.294 -1.81 -8.778 QT
-1.81 -9.388 -2.029 -10.083 QT
-2.248 -10.778 -2.693 -11.263 QT
-3.139 -11.747 -3.764 -11.747 QT
-4.373 -11.747 -4.881 -11.435 QT
-5.389 -11.122 -5.685 -10.591 QT
-5.685 -6.997 L
cp}def
f169032794
f
GR
GS
[0 -1 1 0 33.31102 202.49985] CT
0.149 GC
N
/f-768353772{4.376 -5.372 M
3.454 -5.372 2.696 -5.857 QT
1.939 -6.341 1.501 -7.138 QT
1.064 -7.935 1.064 -8.825 QT
1.064 -9.716 1.462 -10.505 QT
1.86 -11.294 2.571 -11.778 QT
3.282 -12.263 4.157 -12.263 QT
4.86 -12.263 5.368 -12.036 QT
5.876 -11.81 6.204 -11.396 QT
6.532 -10.982 6.696 -10.427 QT
6.86 -9.872 6.86 -9.2 QT
6.86 -9.013 6.72 -9.013 QT
2.376 -9.013 L
2.376 -8.841 L
2.376 -7.607 2.876 -6.708 QT
3.376 -5.81 4.517 -5.81 QT
4.97 -5.81 5.36 -6.021 QT
5.751 -6.232 6.04 -6.591 QT
6.329 -6.95 6.439 -7.372 QT
6.454 -7.419 6.493 -7.466 QT
6.532 -7.513 6.579 -7.513 QT
6.72 -7.513 L
6.86 -7.513 6.86 -7.31 QT
6.657 -6.466 5.954 -5.919 QT
5.251 -5.372 4.376 -5.372 QT
cp
2.392 -9.388 M
5.798 -9.388 L
5.798 -9.95 5.642 -10.528 QT
5.485 -11.107 5.118 -11.489 QT
4.751 -11.872 4.157 -11.872 QT
3.314 -11.872 2.853 -11.075 QT
2.392 -10.278 2.392 -9.388 QT
cp}def
f-768353772
f
GR
GS
[0 -1 1 0 33.31102 202.49985] CT
0.149 GC
N
/f-1634802722{7.939 -5.544 M
7.939 -6.075 L
8.439 -6.075 8.775 -6.153 QT
9.111 -6.232 9.111 -6.544 QT
9.111 -10.638 L
9.111 -11.044 8.986 -11.224 QT
8.861 -11.403 8.635 -11.442 QT
8.408 -11.482 7.939 -11.482 QT
7.939 -12.013 L
10.111 -12.169 L
10.111 -10.7 L
10.408 -11.357 11.002 -11.763 QT
11.595 -12.169 12.283 -12.169 QT
13.33 -12.169 13.853 -11.669 QT
14.377 -11.169 14.377 -10.153 QT
14.377 -6.544 L
14.377 -6.232 14.705 -6.153 QT
15.033 -6.075 15.549 -6.075 QT
15.549 -5.544 L
12.111 -5.544 L
12.111 -6.075 L
12.627 -6.075 12.955 -6.153 QT
13.283 -6.232 13.283 -6.544 QT
13.283 -10.107 L
13.283 -10.841 13.072 -11.31 QT
12.861 -11.778 12.189 -11.778 QT
11.33 -11.778 10.767 -11.083 QT
10.205 -10.388 10.205 -9.513 QT
10.205 -6.544 L
10.205 -6.232 10.533 -6.153 QT
10.861 -6.075 11.361 -6.075 QT
11.361 -5.544 L
7.939 -5.544 L
cp}def
f-1634802722
f
GR
GS
[0 -1 1 0 33.31102 202.49985] CT
0.149 GC
N
/f1054374715{19.776 -5.372 M
18.854 -5.372 18.096 -5.857 QT
17.339 -6.341 16.901 -7.138 QT
16.464 -7.935 16.464 -8.825 QT
16.464 -9.716 16.862 -10.505 QT
17.26 -11.294 17.971 -11.778 QT
18.682 -12.263 19.557 -12.263 QT
20.26 -12.263 20.768 -12.036 QT
21.276 -11.81 21.604 -11.396 QT
21.932 -10.982 22.096 -10.427 QT
22.26 -9.872 22.26 -9.2 QT
22.26 -9.013 22.12 -9.013 QT
17.776 -9.013 L
17.776 -8.841 L
17.776 -7.607 18.276 -6.708 QT
18.776 -5.81 19.917 -5.81 QT
20.37 -5.81 20.76 -6.021 QT
21.151 -6.232 21.44 -6.591 QT
21.729 -6.95 21.839 -7.372 QT
21.854 -7.419 21.893 -7.466 QT
21.932 -7.513 21.979 -7.513 QT
22.12 -7.513 L
22.26 -7.513 22.26 -7.31 QT
22.057 -6.466 21.354 -5.919 QT
20.651 -5.372 19.776 -5.372 QT
cp
17.792 -9.388 M
21.198 -9.388 L
21.198 -9.95 21.042 -10.528 QT
20.885 -11.107 20.518 -11.489 QT
20.151 -11.872 19.557 -11.872 QT
18.714 -11.872 18.253 -11.075 QT
17.792 -10.278 17.792 -9.388 QT
cp}def
f1054374715
f
GR
GS
[0 -1 1 0 33.31102 202.49985] CT
0.149 GC
N
/f-1999873957{24.417 -7.341 M
24.417 -11.482 L
23.167 -11.482 L
23.167 -11.872 L
24.152 -11.872 24.613 -12.786 QT
25.074 -13.7 25.074 -14.778 QT
25.511 -14.778 L
25.511 -12.013 L
27.621 -12.013 L
27.621 -11.482 L
25.511 -11.482 L
25.511 -7.372 L
25.511 -6.747 25.722 -6.278 QT
25.933 -5.81 26.464 -5.81 QT
26.98 -5.81 27.206 -6.31 QT
27.433 -6.81 27.433 -7.372 QT
27.433 -8.263 L
27.871 -8.263 L
27.871 -7.341 L
27.871 -6.872 27.699 -6.419 QT
27.527 -5.966 27.191 -5.669 QT
26.855 -5.372 26.371 -5.372 QT
25.464 -5.372 24.941 -5.911 QT
24.417 -6.45 24.417 -7.341 QT
cp}def
f-1999873957
f
GR
GS
[0 -1 1 0 33.31102 202.49985] CT
0.149 GC
N
/f308251256{29.266 -5.544 M
29.266 -6.075 L
29.781 -6.075 30.109 -6.153 QT
30.438 -6.232 30.438 -6.544 QT
30.438 -10.638 L
30.438 -11.044 30.313 -11.224 QT
30.188 -11.403 29.961 -11.442 QT
29.734 -11.482 29.266 -11.482 QT
29.266 -12.013 L
31.406 -12.169 L
31.406 -10.7 L
31.656 -11.357 32.102 -11.763 QT
32.547 -12.169 33.188 -12.169 QT
33.625 -12.169 33.977 -11.903 QT
34.328 -11.638 34.328 -11.216 QT
34.328 -10.935 34.133 -10.739 QT
33.938 -10.544 33.656 -10.544 QT
33.375 -10.544 33.18 -10.739 QT
32.984 -10.935 32.984 -11.216 QT
32.984 -11.622 33.266 -11.778 QT
33.188 -11.778 L
32.578 -11.778 32.195 -11.341 QT
31.813 -10.903 31.648 -10.255 QT
31.484 -9.607 31.484 -9.013 QT
31.484 -6.544 L
31.484 -6.075 32.938 -6.075 QT
32.938 -5.544 L
29.266 -5.544 L
cp}def
f308251256
f
GR
GS
[0 -1 1 0 33.31102 202.49985] CT
0.149 GC
N
/f700049157{35.5 -7.013 M
35.5 -7.903 36.204 -8.466 QT
36.907 -9.028 37.899 -9.263 QT
38.891 -9.497 39.766 -9.497 QT
39.766 -10.107 L
39.766 -10.544 39.579 -10.95 QT
39.391 -11.357 39.032 -11.614 QT
38.672 -11.872 38.235 -11.872 QT
37.25 -11.872 36.719 -11.419 QT
37.016 -11.419 37.196 -11.208 QT
37.375 -10.997 37.375 -10.7 QT
37.375 -10.403 37.165 -10.192 QT
36.954 -9.982 36.672 -9.982 QT
36.36 -9.982 36.149 -10.192 QT
35.938 -10.403 35.938 -10.7 QT
35.938 -11.497 36.657 -11.88 QT
37.375 -12.263 38.235 -12.263 QT
38.844 -12.263 39.461 -12.005 QT
40.079 -11.747 40.469 -11.263 QT
40.86 -10.778 40.86 -10.138 QT
40.86 -6.763 L
40.86 -6.466 40.985 -6.224 QT
41.11 -5.982 41.375 -5.982 QT
41.625 -5.982 41.743 -6.232 QT
41.86 -6.482 41.86 -6.763 QT
41.86 -7.716 L
42.297 -7.716 L
42.297 -6.763 L
42.297 -6.419 42.125 -6.114 QT
41.954 -5.81 41.657 -5.63 QT
41.36 -5.45 41.016 -5.45 QT
40.579 -5.45 40.258 -5.794 QT
39.938 -6.138 39.907 -6.607 QT
39.625 -6.044 39.086 -5.708 QT
38.547 -5.372 37.922 -5.372 QT
37.36 -5.372 36.805 -5.544 QT
36.25 -5.716 35.875 -6.075 QT
35.5 -6.435 35.5 -7.013 QT
cp
36.719 -7.013 M
36.719 -6.482 37.11 -6.13 QT
37.5 -5.778 38.032 -5.778 QT
38.516 -5.778 38.907 -6.013 QT
39.297 -6.247 39.532 -6.669 QT
39.766 -7.091 39.766 -7.544 QT
39.766 -9.107 L
39.094 -9.107 38.375 -8.888 QT
37.657 -8.669 37.188 -8.192 QT
36.719 -7.716 36.719 -7.013 QT
cp}def
f700049157
f
GR
GS
[0 -1 1 0 33.31102 202.49985] CT
0.149 GC
N
/f-1080263907{44.138 -7.341 M
44.138 -11.482 L
42.888 -11.482 L
42.888 -11.872 L
43.872 -11.872 44.333 -12.786 QT
44.794 -13.7 44.794 -14.778 QT
45.232 -14.778 L
45.232 -12.013 L
47.341 -12.013 L
47.341 -11.482 L
45.232 -11.482 L
45.232 -7.372 L
45.232 -6.747 45.443 -6.278 QT
45.654 -5.81 46.185 -5.81 QT
46.7 -5.81 46.927 -6.31 QT
47.154 -6.81 47.154 -7.372 QT
47.154 -8.263 L
47.591 -8.263 L
47.591 -7.341 L
47.591 -6.872 47.419 -6.419 QT
47.247 -5.966 46.911 -5.669 QT
46.575 -5.372 46.091 -5.372 QT
45.185 -5.372 44.661 -5.911 QT
44.138 -6.45 44.138 -7.341 QT
cp}def
f-1080263907
f
GR
GS
[0 -1 1 0 33.31102 202.49985] CT
0.149 GC
N
/f1045887268{49.064 -5.544 M
49.064 -6.075 L
49.564 -6.075 49.9 -6.153 QT
50.236 -6.232 50.236 -6.544 QT
50.236 -10.638 L
50.236 -11.216 50.01 -11.349 QT
49.783 -11.482 49.127 -11.482 QT
49.127 -12.013 L
51.283 -12.169 L
51.283 -6.544 L
51.283 -6.232 51.572 -6.153 QT
51.861 -6.075 52.33 -6.075 QT
52.33 -5.544 L
49.064 -5.544 L
cp
49.689 -14.747 M
49.689 -15.075 49.939 -15.325 QT
50.189 -15.575 50.518 -15.575 QT
50.721 -15.575 50.924 -15.466 QT
51.127 -15.357 51.236 -15.161 QT
51.346 -14.966 51.346 -14.747 QT
51.346 -14.435 51.096 -14.185 QT
50.846 -13.935 50.518 -13.935 QT
50.189 -13.935 49.939 -14.185 QT
49.689 -14.435 49.689 -14.747 QT
cp}def
f1045887268
f
GR
GS
[0 -1 1 0 33.31102 202.49985] CT
0.149 GC
N
/f-513534316{56.623 -5.372 M
55.717 -5.372 54.952 -5.833 QT
54.186 -6.294 53.741 -7.06 QT
53.295 -7.825 53.295 -8.732 QT
53.295 -9.419 53.538 -10.06 QT
53.78 -10.7 54.241 -11.2 QT
54.702 -11.7 55.311 -11.982 QT
55.92 -12.263 56.623 -12.263 QT
57.545 -12.263 58.303 -11.778 QT
59.061 -11.294 59.498 -10.474 QT
59.936 -9.653 59.936 -8.732 QT
59.936 -7.841 59.491 -7.067 QT
59.045 -6.294 58.28 -5.833 QT
57.514 -5.372 56.623 -5.372 QT
cp
56.623 -5.81 M
57.827 -5.81 58.225 -6.685 QT
58.623 -7.56 58.623 -8.903 QT
58.623 -9.653 58.545 -10.153 QT
58.467 -10.653 58.202 -11.06 QT
58.03 -11.294 57.772 -11.482 QT
57.514 -11.669 57.225 -11.771 QT
56.936 -11.872 56.623 -11.872 QT
56.155 -11.872 55.733 -11.661 QT
55.311 -11.45 55.03 -11.06 QT
54.748 -10.622 54.678 -10.114 QT
54.608 -9.607 54.608 -8.903 QT
54.608 -8.06 54.748 -7.388 QT
54.889 -6.716 55.334 -6.263 QT
55.78 -5.81 56.623 -5.81 QT
cp}def
f-513534316
f
GR
GS
[0 -1 1 0 33.31102 202.49985] CT
0.149 GC
N
/f1645820672{61.027 -5.544 M
61.027 -6.075 L
61.527 -6.075 61.863 -6.153 QT
62.198 -6.232 62.198 -6.544 QT
62.198 -10.638 L
62.198 -11.044 62.073 -11.224 QT
61.948 -11.403 61.722 -11.442 QT
61.495 -11.482 61.027 -11.482 QT
61.027 -12.013 L
63.198 -12.169 L
63.198 -10.7 L
63.495 -11.357 64.089 -11.763 QT
64.683 -12.169 65.37 -12.169 QT
66.417 -12.169 66.941 -11.669 QT
67.464 -11.169 67.464 -10.153 QT
67.464 -6.544 L
67.464 -6.232 67.792 -6.153 QT
68.12 -6.075 68.636 -6.075 QT
68.636 -5.544 L
65.198 -5.544 L
65.198 -6.075 L
65.714 -6.075 66.042 -6.153 QT
66.37 -6.232 66.37 -6.544 QT
66.37 -10.107 L
66.37 -10.841 66.159 -11.31 QT
65.948 -11.778 65.277 -11.778 QT
64.417 -11.778 63.855 -11.083 QT
63.292 -10.388 63.292 -9.513 QT
63.292 -6.544 L
63.292 -6.232 63.62 -6.153 QT
63.948 -6.075 64.448 -6.075 QT
64.448 -5.544 L
61.027 -5.544 L
cp}def
f1645820672
f
GR
GS
[0 -1 1 0 33.31102 202.49985] CT
0.149 GC
N
/f-914235466{70.613 -2.841 M
70.613 -2.903 70.676 -2.966 QT
71.223 -3.482 71.52 -4.161 QT
71.817 -4.841 71.817 -5.607 QT
71.817 -5.778 L
71.582 -5.544 71.223 -5.544 QT
70.879 -5.544 70.637 -5.786 QT
70.395 -6.028 70.395 -6.372 QT
70.395 -6.716 70.637 -6.95 QT
70.879 -7.185 71.223 -7.185 QT
71.754 -7.185 71.981 -6.692 QT
72.207 -6.2 72.207 -5.607 QT
72.207 -4.763 71.871 -4.013 QT
71.535 -3.263 70.926 -2.669 QT
70.879 -2.638 70.832 -2.638 QT
70.77 -2.638 70.692 -2.7 QT
70.613 -2.763 70.613 -2.841 QT
cp}def
f-914235466
f
GR
GS
[0 -1 1 0 33.31102 202.49985] CT
0.149 GC
N
/f-539956575{80.306 -1.794 M
80.306 -16.794 L
82.368 -16.794 L
82.368 -16.2 L
80.915 -16.2 L
80.915 -2.388 L
82.368 -2.388 L
82.368 -1.794 L
80.306 -1.794 L
cp}def
f-539956575
f
GR
GS
[0 -1 1 0 33.31102 202.49985] CT
0.149 GC
N
/f-375646281{83.271 -5.544 M
83.271 -6.075 L
83.771 -6.075 84.107 -6.153 QT
84.443 -6.232 84.443 -6.544 QT
84.443 -10.638 L
84.443 -11.044 84.318 -11.224 QT
84.193 -11.403 83.966 -11.442 QT
83.74 -11.482 83.271 -11.482 QT
83.271 -12.013 L
85.443 -12.169 L
85.443 -10.7 L
85.74 -11.357 86.334 -11.763 QT
86.927 -12.169 87.615 -12.169 QT
89.349 -12.169 89.646 -10.763 QT
89.943 -11.403 90.521 -11.786 QT
91.099 -12.169 91.787 -12.169 QT
92.474 -12.169 92.935 -11.95 QT
93.396 -11.732 93.63 -11.278 QT
93.865 -10.825 93.865 -10.153 QT
93.865 -6.544 L
93.865 -6.232 94.201 -6.153 QT
94.537 -6.075 95.037 -6.075 QT
95.037 -5.544 L
91.615 -5.544 L
91.615 -6.075 L
92.115 -6.075 92.451 -6.153 QT
92.787 -6.232 92.787 -6.544 QT
92.787 -10.107 L
92.787 -10.857 92.568 -11.317 QT
92.349 -11.778 91.693 -11.778 QT
90.834 -11.778 90.271 -11.083 QT
89.709 -10.388 89.709 -9.513 QT
89.709 -6.544 L
89.709 -6.232 90.037 -6.153 QT
90.365 -6.075 90.88 -6.075 QT
90.88 -5.544 L
87.443 -5.544 L
87.443 -6.075 L
87.959 -6.075 88.287 -6.153 QT
88.615 -6.232 88.615 -6.544 QT
88.615 -10.107 L
88.615 -10.841 88.404 -11.31 QT
88.193 -11.778 87.521 -11.778 QT
86.662 -11.778 86.099 -11.083 QT
85.537 -10.388 85.537 -9.513 QT
85.537 -6.544 L
85.537 -6.232 85.865 -6.153 QT
86.193 -6.075 86.693 -6.075 QT
86.693 -5.544 L
83.271 -5.544 L
cp}def
f-375646281
f
GR
GS
[0 -1 1 0 33.31102 202.49985] CT
0.149 GC
N
/f203848238{96.104 -5.544 M
96.104 -6.075 L
96.604 -6.075 96.94 -6.153 QT
97.276 -6.232 97.276 -6.544 QT
97.276 -10.638 L
97.276 -11.044 97.151 -11.224 QT
97.026 -11.403 96.8 -11.442 QT
96.573 -11.482 96.104 -11.482 QT
96.104 -12.013 L
98.276 -12.169 L
98.276 -10.7 L
98.573 -11.357 99.167 -11.763 QT
99.761 -12.169 100.448 -12.169 QT
102.183 -12.169 102.479 -10.763 QT
102.776 -11.403 103.354 -11.786 QT
103.933 -12.169 104.62 -12.169 QT
105.308 -12.169 105.769 -11.95 QT
106.229 -11.732 106.464 -11.278 QT
106.698 -10.825 106.698 -10.153 QT
106.698 -6.544 L
106.698 -6.232 107.034 -6.153 QT
107.37 -6.075 107.87 -6.075 QT
107.87 -5.544 L
104.448 -5.544 L
104.448 -6.075 L
104.948 -6.075 105.284 -6.153 QT
105.62 -6.232 105.62 -6.544 QT
105.62 -10.107 L
105.62 -10.857 105.401 -11.317 QT
105.183 -11.778 104.526 -11.778 QT
103.667 -11.778 103.104 -11.083 QT
102.542 -10.388 102.542 -9.513 QT
102.542 -6.544 L
102.542 -6.232 102.87 -6.153 QT
103.198 -6.075 103.714 -6.075 QT
103.714 -5.544 L
100.276 -5.544 L
100.276 -6.075 L
100.792 -6.075 101.12 -6.153 QT
101.448 -6.232 101.448 -6.544 QT
101.448 -10.107 L
101.448 -10.841 101.237 -11.31 QT
101.026 -11.778 100.354 -11.778 QT
99.495 -11.778 98.933 -11.083 QT
98.37 -10.388 98.37 -9.513 QT
98.37 -6.544 L
98.37 -6.232 98.698 -6.153 QT
99.026 -6.075 99.526 -6.075 QT
99.526 -5.544 L
96.104 -5.544 L
cp}def
f203848238
f
GR
GS
[0 -1 1 0 33.31102 202.49985] CT
0.149 GC
N
/f-56925267{108.813 -1.794 M
108.813 -2.388 L
110.266 -2.388 L
110.266 -16.2 L
108.813 -16.2 L
108.813 -16.794 L
110.875 -16.794 L
110.875 -1.794 L
108.813 -1.794 L
cp}def
f-56925267
f
GR
GS
0 0.447 0.741 RC
1 LJ
0.5 LW
N
77.34 66.424 M
116.4 339.214 L
507 370.474 L
S
GR
GS
[1 0 0 1 77.34 66.42387] CT
0 0.447 0.741 RC
10.0 ML
0.5 LW
N
0 -3 M
0 3 L
-3 0 M
3 0 L
-2.121 -2.121 M
2.121 2.121 L
-2.121 2.121 M
2.121 -2.121 L
S
GR
GS
[1 0 0 1 116.4 339.21429] CT
0 0.447 0.741 RC
10.0 ML
0.5 LW
N
0 -3 M
0 3 L
-3 0 M
3 0 L
-2.121 -2.121 M
2.121 2.121 L
-2.121 2.121 M
2.121 -2.121 L
S
GR
GS
[1 0 0 1 507 370.47427] CT
0 0.447 0.741 RC
10.0 ML
0.5 LW
N
0 -3 M
0 3 L
-3 0 M
3 0 L
-2.121 -2.121 M
2.121 2.121 L
-2.121 2.121 M
2.121 -2.121 L
S
GR
%%Trailer
%%Pages: 1
%%EOF
